"receiver";"fundedObject";"name";"payer";"amount";"year";"fundingBasis";"street";"zipCode";"city_de";"status";"amountPart1";"amountPart2";"broadcastName";"category";"deadline";"broadcastLength";"productionCosts"
"Kärntner Tageszeitungsges.m.b.H";"Kärntner Tageszeitung";"Pressefoerderung";"KommAustria";"821847.6";"2013";"Abschnitt III PresseFG 2004";"Karfreitstraße 24";"9020";"Klagenfurt";"abgeschlossen";"410923.8";"410923.8";"";"Besondere Förderung zur Erhaltung der regionalen Vielfalt der Tageszeitungen";"";"";""
"NEUE Zeitungs GmbH";"Neue Vorarlberger Tageszeitung";"Pressefoerderung";"KommAustria";"672289.8";"2013";"Abschnitt III PresseFG 2004";"Gutenbergstraße 1";"6858";"Schwarzach";"abgeschlossen";"336144.9";"336144.9";"";"Besondere Förderung zur Erhaltung der regionalen Vielfalt der Tageszeitungen";"";"";""
"OÖ Media Data Vertriebs- und Verlagsges.m.b.H.";"Neues Volksblatt";"Pressefoerderung";"KommAustria";"695540.4";"2013";"Abschnitt III PresseFG 2004";"Hafenstraße 1-3";"4010";"Linz";"abgeschlossen";"347770.2";"347770.2";"";"Besondere Förderung zur Erhaltung der regionalen Vielfalt der Tageszeitungen";"";"";""
"Salzburger Volkszeitung GmbH & Co KG";"SVZ Salzburger Volkszeitung";"Pressefoerderung";"KommAustria";"649612";"2013";"Abschnitt III PresseFG 2004";"Schrannengasse 6";"5020";"Salzburg";"abgeschlossen";"324806";"324806";"";"Besondere Förderung zur Erhaltung der regionalen Vielfalt der Tageszeitungen";"";"";""
"STANDARD Verlagsgesellschaft m.b.H.";"Der Standard";"Pressefoerderung";"KommAustria";"881259.5";"2013";"Abschnitt III PresseFG 2004";"Vordere Zollamtsstraße 13";"1030";"Wien";"abgeschlossen";"440629.75";"440629.75";"";"Besondere Förderung zur Erhaltung der regionalen Vielfalt der Tageszeitungen";"";"";""
"WirtschaftsBlatt Medien GmbH";"WirtschaftsBlatt";"Pressefoerderung";"KommAustria";"573059.2";"2013";"Abschnitt III PresseFG 2004";"Hainburger Straße 33";"1030";"Wien";"abgeschlossen";"286529.6";"286529.6";"";"Besondere Förderung zur Erhaltung der regionalen Vielfalt der Tageszeitungen";"";"";""
"Forum Journalismus und Medien Wien - Verein Wiener Medienfortbildung";"fjum - forum journalismus und medien wien";"Pressefoerderung";"KommAustria";"23304";"2013";"§ 10 Abs.2 PresseFG 2004";"Karl-Farkas-Gasse 18";"1030";"Wien";"abgeschlossen";"11652";"11652";"";"Förderung von Vereinigungen der Journalistenausbildung";"";"";""
"Friedrich Austerlitz-Institut für JournalistInnenausbildung";"Friedrich Austerlitz-Institut für JournalistInnenausbildung";"Pressefoerderung";"KommAustria";"9856";"2013";"§ 10 Abs.2 PresseFG 2004";"Khleslplatz 12";"1120";"Wien";"abgeschlossen";"4928";"4928";"";"Förderung von Vereinigungen der Journalistenausbildung";"";"";""
"Friedrich Funder Institut für Publizistik, Medienforschung und Journalistenausbildung";"Friedrich Funder Institut für Publizistik, Medienforschung und Journalistenausbildung";"Pressefoerderung";"KommAustria";"28771";"2013";"§ 10 Abs.2 PresseFG 2004";"Tivoligasse 73";"1120";"Wien";"abgeschlossen";"14385.5";"14385.5";"";"Förderung von Vereinigungen der Journalistenausbildung";"";"";""
"GESPU - Gesellschaft für Publizistik und Medienforschung";"GESPU - Gesellschaft für Publizistik und Medienforschung";"Pressefoerderung";"KommAustria";"11869";"2013";"§ 10 Abs.2 PresseFG 2004";"Alfred-Dallinger-Platz 1";"1030";"Wien";"abgeschlossen";"5934.5";"5934.5";"";"Förderung von Vereinigungen der Journalistenausbildung";"";"";""
"Katholische Medien Akademie";"Katholische Medien Akademie";"Pressefoerderung";"KommAustria";"42980";"2013";"§ 10 Abs.2 PresseFG 2004";"Schottengasse 3/7/39";"1010";"Wien";"abgeschlossen";"21490";"21490";"";"Förderung von Vereinigungen der Journalistenausbildung";"";"";""
"M-MEDIA, Verein zur Förderung interkultureller Medienarbeit";"M-MEDIA, Verein zur Förderung interkultureller Medienarbeit";"Pressefoerderung";"KommAustria";"4900";"2013";"§ 10 Abs.2 PresseFG 2004";"Franz-Josef Kai 27/1";"1010";"Wien";"abgeschlossen";"2450";"2450";"";"Förderung von Vereinigungen der Journalistenausbildung";"";"";""
"OÖ Journalistenakademie";"OÖ Journalistenakademie";"Pressefoerderung";"KommAustria";"60840";"2013";"§ 10 Abs.2 PresseFG 2004";"Puchberg 1";"4600";"Wels";"abgeschlossen";"30420";"30420";"";"Förderung von Vereinigungen der Journalistenausbildung";"";"";""
"Österreichische Medienakademie - Kuratorium für Journalistenausbildung";"Österreichische Medienakademie - Kuratorium für Journalistenausbildung";"Pressefoerderung";"KommAustria";"425880";"2013";"§ 10 Abs.2 PresseFG 2004";"Karolingerstrasse 40";"5020";"Salzburg";"abgeschlossen";"212940";"212940";"";"Förderung von Vereinigungen der Journalistenausbildung";"";"";""
"Klub der Wirtschaftspublizisten";"Klub der Wirtschaftspublizisten";"Pressefoerderung";"KommAustria";"3744";"2013";"§ 11 Abs.4 PresseFG 2004";"Bauernmarkt 6/7";"1010";"Wien";"abgeschlossen";"1872";"1872";"";"Förderung von Vereinigungen, deren Hauptaufgabe die Veranstaltung oder Durchführung von Pressekonferenzen ist";"";"";""
"Oberösterreichischer Presseclub";"Oberösterreichischer Presseclub";"Pressefoerderung";"KommAustria";"8424";"2013";"§ 11 Abs.4 PresseFG 2004";"Landeskulturzentrum Ursulinenhof, Landstraße 31";"4020";"Linz";"abgeschlossen";"4212";"4212";"";"Förderung von Vereinigungen, deren Hauptaufgabe die Veranstaltung oder Durchführung von Pressekonferenzen ist";"";"";""
"Presseclub Concordia";"Presseclub Concordia";"Pressefoerderung";"KommAustria";"23400";"2013";"§ 11 Abs.4 PresseFG 2004";"Bankgasse 8";"1010";"Wien";"abgeschlossen";"11700";"11700";"";"Förderung von Vereinigungen, deren Hauptaufgabe die Veranstaltung oder Durchführung von Pressekonferenzen ist";"";"";""
"Steirischer Presseclub";"Steirischer Presseclub";"Pressefoerderung";"KommAustria";"7020";"2013";"§ 11 Abs.4 PresseFG 2004";"Bürgergasse 2";"8010";"Graz";"abgeschlossen";"3510";"3510";"";"Förderung von Vereinigungen, deren Hauptaufgabe die Veranstaltung oder Durchführung von Pressekonferenzen ist";"";"";""
"Verband der Agrarjournalisten und -publizisten in Österreich (VAÖ)";"Verband der Agrarjournalisten und -publizisten in Österreich (VAÖ)";"Pressefoerderung";"KommAustria";"936";"2013";"§ 11 Abs.4 PresseFG 2004";"Schauflergasse 6";"1014";"Wien";"abgeschlossen";"468";"468";"";"Förderung von Vereinigungen, deren Hauptaufgabe die Veranstaltung oder Durchführung von Pressekonferenzen ist";"";"";""
"Verband der Auslandspresse in Wien";"Verband der Auslandspresse in Wien";"Pressefoerderung";"KommAustria";"3276";"2013";"§ 11 Abs.4 PresseFG 2004";"Bartensteingasse 13/12";"1010";"Wien";"abgeschlossen";"1638";"1638";"";"Förderung von Vereinigungen, deren Hauptaufgabe die Veranstaltung oder Durchführung von Pressekonferenzen ist";"";"";""
"""Die Presse"" Verlags-Gesellschaft m.b.H. & Co KG";"Die Presse: Unabhängige Tageszeitung für Österreich";"Pressefoerderung";"KommAustria";"13000";"2013";"§ 11 Abs.2 Z 2 PresseFG 2004";"Hainburger Straße 33";"1030";"Wien";"abgeschlossen";"6500";"6500";"";"Refundierung für die Gratisverteilung an Schulen - Tageszeitungen";"";"";""
"Kleine Zeitung GmbH & Co KG";"Kleine Zeitung Steiermark und Kärnten";"Pressefoerderung";"KommAustria";"6543";"2013";"§ 11 Abs.2 Z 2 PresseFG 2004";"Schönaugasse 64";"8010";"Graz";"abgeschlossen";"3271.5";"3271.5";"";"Refundierung für die Gratisverteilung an Schulen - Tageszeitungen";"";"";""
"Kärntner Tageszeitungsges.m.b.H";"Kärntner Tageszeitung";"Pressefoerderung";"KommAustria";"597";"2013";"§ 11 Abs.2 Z 2 PresseFG 2004";"Karfreitstraße 24";"9020";"Klagenfurt";"abgeschlossen";"298.5";"298.5";"";"Refundierung für die Gratisverteilung an Schulen - Tageszeitungen";"";"";""
"Mediaprint Zeitungs- und Zeitschriftenverlag Gesellschaft m.b.H & Co KG";"KURIER";"Pressefoerderung";"KommAustria";"6797";"2013";"§ 11 Abs.2 Z 2 PresseFG 2004";"Muthgasse 2";"1190";"Wien";"abgeschlossen";"3398.5";"3398.5";"";"Refundierung für die Gratisverteilung an Schulen - Tageszeitungen";"";"";""
"Mediaprint Zeitungs- und Zeitschriftenverlag Gesellschaft m.b.H & Co KG";"Neue Kronenzeitung";"Pressefoerderung";"KommAustria";"6500";"2013";"§ 11 Abs.2 Z 2 PresseFG 2004";"Muthgasse 2";"1190";"Wien";"abgeschlossen";"3250";"3250";"";"Refundierung für die Gratisverteilung an Schulen - Tageszeitungen";"";"";""
"NEUE Zeitungs GmbH";"Neue Vorarlberger Tageszeitung";"Pressefoerderung";"KommAustria";"414";"2013";"§ 11 Abs.2 Z 2 PresseFG 2004";"Gutenbergstraße 1";"6858";"Schwarzach";"abgeschlossen";"207";"207";"";"Refundierung für die Gratisverteilung an Schulen - Tageszeitungen";"";"";""
"OÖ Media Data Vertriebs- und Verlagsges.m.b.H.";"Neues Volksblatt";"Pressefoerderung";"KommAustria";"1317";"2013";"§ 11 Abs.2 Z 2 PresseFG 2004";"Hafenstraße 1-3";"4010";"Linz";"abgeschlossen";"658.5";"658.5";"";"Refundierung für die Gratisverteilung an Schulen - Tageszeitungen";"";"";""
"OÖN Redaktion GmbH & CO KG";"OÖ Nachrichten";"Pressefoerderung";"KommAustria";"7530";"2013";"§ 11 Abs.2 Z 2 PresseFG 2004";"Promenade 23";"4020";"Linz";"abgeschlossen";"3765";"3765";"";"Refundierung für die Gratisverteilung an Schulen - Tageszeitungen";"";"";""
"Russmedia Verlag GmbH";"Vorarlberger Nachrichten";"Pressefoerderung";"KommAustria";"8395";"2013";"§ 11 Abs.2 Z 2 PresseFG 2004";"Gutenbergstr. 1";"6858";"Schwarzach";"abgeschlossen";"4197.5";"4197.5";"";"Refundierung für die Gratisverteilung an Schulen - Tageszeitungen";"";"";""
"Salzburger Nachrichten Verlagsgesellschaft m.b.H. & Co KG";"Salzburger Nachrichten";"Pressefoerderung";"KommAustria";"9173";"2013";"§ 11 Abs.2 Z 2 PresseFG 2004";"Karolingerstrasse 40";"5020";"Salzburg";"abgeschlossen";"4586.5";"4586.5";"";"Refundierung für die Gratisverteilung an Schulen - Tageszeitungen";"";"";""
"Salzburger Volkszeitung GmbH & Co KG";"SVZ Salzburger Volkszeitung";"Pressefoerderung";"KommAustria";"5991";"2013";"§ 11 Abs.2 Z 2 PresseFG 2004";"Schrannengasse 6";"5020";"Salzburg";"abgeschlossen";"2995.5";"2995.5";"";"Refundierung für die Gratisverteilung an Schulen - Tageszeitungen";"";"";""
"Schlüsselverlag J. S. Moser GmbH.";"Tiroler Tageszeitung";"Pressefoerderung";"KommAustria";"9102";"2013";"§ 11 Abs.2 Z 2 PresseFG 2004";"Brunecker Straße 3";"6020";"Innsbruck";"abgeschlossen";"4551";"4551";"";"Refundierung für die Gratisverteilung an Schulen - Tageszeitungen";"";"";""
"STANDARD Verlagsgesellschaft m.b.H.";"Der Standard";"Pressefoerderung";"KommAustria";"12875";"2013";"§ 11 Abs.2 Z 2 PresseFG 2004";"Vordere Zollamtsstraße 13";"1030";"Wien";"abgeschlossen";"6437.5";"6437.5";"";"Refundierung für die Gratisverteilung an Schulen - Tageszeitungen";"";"";""
"WirtschaftsBlatt Medien GmbH";"WirtschaftsBlatt";"Pressefoerderung";"KommAustria";"2962";"2013";"§ 11 Abs.2 Z 2 PresseFG 2004";"Hainburger Straße 33";"1030";"Wien";"abgeschlossen";"1481";"1481";"";"Refundierung für die Gratisverteilung an Schulen - Tageszeitungen";"";"";""
"BVZ Burgenländische Volkszeitung GmbH";"BVZ - Burgenländische Volkszeitung";"Pressefoerderung";"KommAustria";"385";"2013";"§ 11 Abs.2 Z 2 PresseFG 2004";"Hauptstraße 52a";"7000";"Eisenstadt";"abgeschlossen";"192.5";"192.5";"";"Refundierung für die Gratisverteilung an Schulen - Wochenzeitungen";"";"";""
"Die Furche-Zeitschriften Betriebs-Gesellschaft m.b.H. & Co.KG.";"Die Furche";"Pressefoerderung";"KommAustria";"9513";"2013";"§ 11 Abs.2 Z 2 PresseFG 2004";"Lobkowitzplatz 1";"1010";"Wien";"abgeschlossen";"4756.5";"4756.5";"";"Refundierung für die Gratisverteilung an Schulen - Wochenzeitungen";"";"";""
"Diözese Innsbruck - Bischöfliches Ordinariat";"Tiroler Sonntag - Kirchenzeitung der Diözese Innsbruck";"Pressefoerderung";"KommAustria";"211";"2013";"§ 11 Abs.2 Z 2 PresseFG 2004";"Riedgasse 9";"6020";"Innsbruck";"abgeschlossen";"105.5";"105.5";"";"Refundierung für die Gratisverteilung an Schulen - Wochenzeitungen";"";"";""
"Falter - Zeitschriften Gesellschaft m.b.H.";"Falter";"Pressefoerderung";"KommAustria";"1694";"2013";"§ 11 Abs.2 Z 2 PresseFG 2004";"Marc-Aurel-Straße 9";"1010";"Wien";"abgeschlossen";"847";"847";"";"Refundierung für die Gratisverteilung an Schulen - Wochenzeitungen";"";"";""
"Kirchenzeitung der Diözese Linz";"Kirchenzeitung der Diözese Linz";"Pressefoerderung";"KommAustria";"463";"2013";"§ 11 Abs.2 Z 2 PresseFG 2004";"Kapuzinerstraße 84";"4020";"Linz";"abgeschlossen";"231.5";"231.5";"";"Refundierung für die Gratisverteilung an Schulen - Wochenzeitungen";"";"";""
"Kroatischer Presseverein (Hrvatsko stamparsko drustvo)";"Hrvatske Novine";"Pressefoerderung";"KommAustria";"79";"2013";"§ 11 Abs.2 Z 2 PresseFG 2004";"Hotterweg 54";"7000";"Eisenstadt";"abgeschlossen";"39.5";"39.5";"";"Refundierung für die Gratisverteilung an Schulen - Wochenzeitungen";"";"";""
"Murtaler Zeitung GmbH";"Murtaler Zeitung";"Pressefoerderung";"KommAustria";"93";"2013";"§ 11 Abs.2 Z 2 PresseFG 2004";"Murtaler Platz 1";" c/o fides Verrechnungs- & DienstleistungsGmbH, Triesterstraße 391-393, 8055 Graz";"8750";"Judenburg";"abgeschlossen";"46.5";"46.5";"";"Refundierung für die Gratisverteilung an Schulen - Wochenzeitungen";"";""
"Niederösterreichisches Pressehaus Druck- und Verlagsgesellschaft m.b.H.";"NÖN - Niederösterreichische Nachrichten";"Pressefoerderung";"KommAustria";"2845";"2013";"§ 11 Abs.2 Z 2 PresseFG 2004";"Gutenbergstraße 12";"3100";"St. Pölten";"abgeschlossen";"1422.5";"1422.5";"";"Refundierung für die Gratisverteilung an Schulen - Wochenzeitungen";"";"";""
"Osttiroler Bote Medienunternehmen Ges.m.b.H.";"Osttiroler Bote";"Pressefoerderung";"KommAustria";"62";"2013";"§ 11 Abs.2 Z 2 PresseFG 2004";"Schweizergasse 26";"9900";"Lienz, Osttirol";"abgeschlossen";"31";"31";"";"Refundierung für die Gratisverteilung an Schulen - Wochenzeitungen";"";"";""
"Verlagsgruppe NEWS Gesellschaft m.b.H.";"FORMAT";"Pressefoerderung";"KommAustria";"1495";"2013";"§ 11 Abs.2 Z 2 PresseFG 2004";"Taborstrasse 1-3";"1020";"Wien";"abgeschlossen";"747.5";"747.5";"";"Refundierung für die Gratisverteilung an Schulen - Wochenzeitungen";"";"";""
"Verlagsgruppe NEWS Gesellschaft m.b.H.";"News";"Pressefoerderung";"KommAustria";"3656";"2013";"§ 11 Abs.2 Z 2 PresseFG 2004";"Taborstrasse 1-3";"1020";"Wien";"abgeschlossen";"1828";"1828";"";"Refundierung für die Gratisverteilung an Schulen - Wochenzeitungen";"";"";""
"Verlagsgruppe NEWS Gesellschaft m.b.H.";"Profil";"Pressefoerderung";"KommAustria";"8543";"2013";"§ 11 Abs.2 Z 2 PresseFG 2004";"Taborstrasse 1-3";"1020";"Wien";"abgeschlossen";"4271.5";"4271.5";"";"Refundierung für die Gratisverteilung an Schulen - Wochenzeitungen";"";"";""
"""Die Presse"" Verlags-Gesellschaft m.b.H. & Co KG";"Die Presse: Unabhängige Tageszeitung für Österreich";"Pressefoerderung";"KommAustria";"129101.6";"2013";"Abschnitt II PresseFG 2004";"Hainburger Straße 33";"1030";"Wien";"abgeschlossen";"64550.8";"64550.8";"";"Vertriebsförderung von Tageszeitungen";"";"";""
"Kleine Zeitung GmbH & Co KG";"Kleine Zeitung Steiermark und Kärnten";"Pressefoerderung";"KommAustria";"161376.9";"2013";"Abschnitt II PresseFG 2004";"Schönaugasse 64";"8010";"Graz";"abgeschlossen";"80688.45";"80688.45";"";"Vertriebsförderung von Tageszeitungen";"";"";""
"Kärntner Tageszeitungsges.m.b.H";"Kärntner Tageszeitung";"Pressefoerderung";"KommAustria";"161376.9";"2013";"Abschnitt II PresseFG 2004";"Karfreitstraße 24";"9020";"Klagenfurt";"abgeschlossen";"80688.45";"80688.45";"";"Vertriebsförderung von Tageszeitungen";"";"";""
"Mediaprint Zeitungs- und Zeitschriftenverlag Gesellschaft m.b.H & Co KG";"Neue Kronenzeitung";"Pressefoerderung";"KommAustria";"161376.9";"2013";"Abschnitt II PresseFG 2004";"Muthgasse 2";"1190";"Wien";"abgeschlossen";"80688.45";"80688.45";"";"Vertriebsförderung von Tageszeitungen";"";"";""
"Mediaprint Zeitungs- und Zeitschriftenverlag Gesellschaft m.b.H & Co KG";"KURIER";"Pressefoerderung";"KommAustria";"129101.6";"2013";"Abschnitt II PresseFG 2004";"Muthgasse 2";"1190";"Wien";"abgeschlossen";"64550.8";"64550.8";"";"Vertriebsförderung von Tageszeitungen";"";"";""
"NEUE Zeitungs GmbH";"Neue Vorarlberger Tageszeitung";"Pressefoerderung";"KommAustria";"129101.6";"2013";"Abschnitt II PresseFG 2004";"Gutenbergstraße 1";"6858";"Schwarzach";"abgeschlossen";"64550.8";"64550.8";"";"Vertriebsförderung von Tageszeitungen";"";"";""
"OÖ Media Data Vertriebs- und Verlagsges.m.b.H.";"Neues Volksblatt";"Pressefoerderung";"KommAustria";"161376.9";"2013";"Abschnitt II PresseFG 2004";"Hafenstraße 1-3";"4010";"Linz";"abgeschlossen";"80688.45";"80688.45";"";"Vertriebsförderung von Tageszeitungen";"";"";""
"OÖN Redaktion GmbH & CO KG";"OÖ Nachrichten";"Pressefoerderung";"KommAustria";"161376.9";"2013";"Abschnitt II PresseFG 2004";"Promenade 23";"4020";"Linz";"abgeschlossen";"80688.45";"80688.45";"";"Vertriebsförderung von Tageszeitungen";"";"";""
"Russmedia Verlag GmbH";"Vorarlberger Nachrichten";"Pressefoerderung";"KommAustria";"161376.9";"2013";"Abschnitt II PresseFG 2004";"Gutenbergstr. 1";"6858";"Schwarzach";"abgeschlossen";"80688.45";"80688.45";"";"Vertriebsförderung von Tageszeitungen";"";"";""
"Salzburger Nachrichten Verlagsgesellschaft m.b.H. & Co KG";"Salzburger Nachrichten";"Pressefoerderung";"KommAustria";"161376.9";"2013";"Abschnitt II PresseFG 2004";"Karolingerstrasse 40";"5020";"Salzburg";"abgeschlossen";"80688.45";"80688.45";"";"Vertriebsförderung von Tageszeitungen";"";"";""
"Salzburger Volkszeitung GmbH & Co KG";"SVZ Salzburger Volkszeitung";"Pressefoerderung";"KommAustria";"161376.9";"2013";"Abschnitt II PresseFG 2004";"Schrannengasse 6";"5020";"Salzburg";"abgeschlossen";"80688.45";"80688.45";"";"Vertriebsförderung von Tageszeitungen";"";"";""
"Schlüsselverlag J. S. Moser GmbH.";"Tiroler Tageszeitung";"Pressefoerderung";"KommAustria";"161376.9";"2013";"Abschnitt II PresseFG 2004";"Brunecker Straße 3";"6020";"Innsbruck";"abgeschlossen";"80688.45";"80688.45";"";"Vertriebsförderung von Tageszeitungen";"";"";""
"STANDARD Verlagsgesellschaft m.b.H.";"Der Standard";"Pressefoerderung";"KommAustria";"161376.9";"2013";"Abschnitt II PresseFG 2004";"Vordere Zollamtsstraße 13";"1030";"Wien";"abgeschlossen";"80688.45";"80688.45";"";"Vertriebsförderung von Tageszeitungen";"";"";""
"WirtschaftsBlatt Medien GmbH";"WirtschaftsBlatt";"Pressefoerderung";"KommAustria";"96826.2";"2013";"Abschnitt II PresseFG 2004";"Hainburger Straße 33";"1030";"Wien";"abgeschlossen";"48413.1";"48413.1";"";"Vertriebsförderung von Tageszeitungen";"";"";""
"A.B.C. Werbeagentur Ges.m.b.H.";"Kärntner Nachrichten";"Pressefoerderung";"KommAustria";"45741.1";"2013";"Abschnitt II PresseFG 2004";"Messeplatz 1/1. Stock";"9020";"Klagenfurt";"abgeschlossen";"22870.55";"22870.55";"";"Vertriebsförderung von Wochenzeitungen";"";"";""
"Agrar Media Verlagsgesellschaft mbH";"Österreichische Bauernzeitung";"Pressefoerderung";"KommAustria";"79414.3";"2013";"Abschnitt II PresseFG 2004";"Schauflergasse 6";"1010";"Wien";"abgeschlossen";"39707.15";"39707.15";"";"Vertriebsförderung von Wochenzeitungen";"";"";""
"Bischöfliches Ordinariat, Diözese Graz-Seckau";"Sonntagsblatt für Steiermark";"Pressefoerderung";"KommAustria";"79414.3";"2013";"Abschnitt II PresseFG 2004";"Bischofsplatz 4";"8010";"Graz";"abgeschlossen";"39707.15";"39707.15";"";"Vertriebsförderung von Wochenzeitungen";"";"";""
"Bischöfliches Seelsorgeamt";"Nedelja Slowenische Kirchenzeitung der Diözese Gurk";"Pressefoerderung";"KommAustria";"14751.3";"2013";"Abschnitt II PresseFG 2004";"Viktringer Ring 26";"9020";"Klagenfurt";"abgeschlossen";"7375.65";"7375.65";"";"Vertriebsförderung von Wochenzeitungen";"";"";""
"BVZ Burgenländische Volkszeitung GmbH";"BVZ - Burgenländische Volkszeitung";"Pressefoerderung";"KommAustria";"45266.2";"2013";"Abschnitt II PresseFG 2004";"Hauptstraße 52a";"7000";"Eisenstadt";"abgeschlossen";"22633.1";"22633.1";"";"Vertriebsförderung von Wochenzeitungen";"";"";""
"Die Furche-Zeitschriften Betriebs-Gesellschaft m.b.H. & Co.KG.";"Die Furche";"Pressefoerderung";"KommAustria";"72796.5";"2013";"Abschnitt II PresseFG 2004";"Lobkowitzplatz 1";"1010";"Wien";"abgeschlossen";"36398.25";"36398.25";"";"Vertriebsförderung von Wochenzeitungen";"";"";""
"Die ganze Woche GmbH";"Die Ganze Woche";"Pressefoerderung";"KommAustria";"79414.3";"2013";"Abschnitt II PresseFG 2004";"Heiligenstädter Straße 121";"1190";"Wien";"abgeschlossen";"39707.15";"39707.15";"";"Vertriebsförderung von Wochenzeitungen";"";"";""
"Diözese Eisenstadt - Bischöfliches Ordinariat Generalvikar Mag. Martin Korpitsch";"MARTINUS - Kirchenzeitung der Diözese Eisenstadt";"Pressefoerderung";"KommAustria";"69487.5";"2013";"Abschnitt II PresseFG 2004";"St. Rochusstrasse 21";"7000";"Eisenstadt";"abgeschlossen";"34743.75";"34743.75";"";"Vertriebsförderung von Wochenzeitungen";"";"";""
"Diözese Eisenstadt - Kroatische Sektion im Pastoralamt";"GLASNIK  Crikvene novine Zeljezanske biskupije";"Pressefoerderung";"KommAustria";"6695.7";"2013";"Abschnitt II PresseFG 2004";"St. Rochusstrasse 21";"7000";"Eisenstadt";"abgeschlossen";"3347.85";"3347.85";"";"Vertriebsförderung von Wochenzeitungen";"";"";""
"Diözese Feldkirch";"KirchenBlatt";"Pressefoerderung";"KommAustria";"62947.5";"2013";"Abschnitt II PresseFG 2004";"Bahnhofstraße 13";"6801";"Feldkirch";"abgeschlossen";"31473.75";"31473.75";"";"Vertriebsförderung von Wochenzeitungen";"";"";""
"Diözese Innsbruck - Bischöfliches Ordinariat";"Tiroler Sonntag - Kirchenzeitung der Diözese Innsbruck";"Pressefoerderung";"KommAustria";"75443.6";"2013";"Abschnitt II PresseFG 2004";"Riedgasse 9";"6020";"Innsbruck";"abgeschlossen";"37721.8";"37721.8";"";"Vertriebsförderung von Wochenzeitungen";"";"";""
"Falter - Zeitschriften Gesellschaft m.b.H.";"Falter";"Pressefoerderung";"KommAustria";"73964.3";"2013";"Abschnitt II PresseFG 2004";"Marc-Aurel-Straße 9";"1010";"Wien";"abgeschlossen";"36982.15";"36982.15";"";"Vertriebsförderung von Wochenzeitungen";"";"";""
"Freiheitliche Partei Österreichs";"Neue Freie Zeitung";"Pressefoerderung";"KommAustria";"42821.5";"2013";"Abschnitt II PresseFG 2004";"Friedrich Schmidt Platz 4/3A";"1080";"Wien";"abgeschlossen";"21410.75";"21410.75";"";"Vertriebsförderung von Wochenzeitungen";"";"";""
"Grasl Druck & Neue Medien GmbH";"Badener Zeitung";"Pressefoerderung";"KommAustria";"8550.2";"2013";"Abschnitt II PresseFG 2004";"Wassergasse 1";"2500";"Baden bei Wien";"abgeschlossen";"4275.1";"4275.1";"";"Vertriebsförderung von Wochenzeitungen";"";"";""
"Kirchenblatt für die Diözese St. Pölten";"Kirche bunt - St. Pöltner Kirchenzeitung";"Pressefoerderung";"KommAustria";"80971.5";"2013";"Abschnitt II PresseFG 2004";"Gutenbergstr. 12";"3100";"St. Pölten";"abgeschlossen";"40485.75";"40485.75";"";"Vertriebsförderung von Wochenzeitungen";"";"";""
"Kirchenzeitung der Diözese Linz";"Kirchenzeitung der Diözese Linz";"Pressefoerderung";"KommAustria";"79414.3";"2013";"Abschnitt II PresseFG 2004";"Kapuzinerstraße 84";"4020";"Linz";"abgeschlossen";"39707.15";"39707.15";"";"Vertriebsförderung von Wochenzeitungen";"";"";""
"Kitzbüheler Anzeiger Gesellschaft m.b.H.";"Kitzbüheler Anzeiger";"Pressefoerderung";"KommAustria";"8550.2";"2013";"Abschnitt II PresseFG 2004";"Im Gries 23";"6370";"Kitzbühel";"abgeschlossen";"4275.1";"4275.1";"";"Vertriebsförderung von Wochenzeitungen";"";"";""
"Kroatischer Presseverein (Hrvatsko stamparsko drustvo)";"Hrvatske Novine";"Pressefoerderung";"KommAustria";"9342.9";"2013";"Abschnitt II PresseFG 2004";"Hotterweg 54";"7000";"Eisenstadt";"abgeschlossen";"4671.45";"4671.45";"";"Vertriebsförderung von Wochenzeitungen";"";"";""
"Mediengruppe ""ÖSTERREICH"" GmbH";"Madonna mit ÖSTERREICH";"Pressefoerderung";"KommAustria";"0";"2013";"Abschnitt II PresseFG 2004";"Friedrichstraße 10";"1010";"Wien";"abgelehnt";"0";"0";"";"Vertriebsförderung von Wochenzeitungen";"";"";""
"Murtaler Zeitung GmbH";"Murtaler Zeitung";"Pressefoerderung";"KommAustria";"6840.2";"2013";"Abschnitt II PresseFG 2004";"Murtaler Platz 1";" c/o fides Verrechnungs- & DienstleistungsGmbH, Triesterstraße 391-393, 8055 Graz";"8750";"Judenburg";"abgeschlossen";"3420.1";"3420.1";"";"Vertriebsförderung von Wochenzeitungen";"";""
"Neues Land Medien GesmbH";"Neues Land";"Pressefoerderung";"KommAustria";"79414.3";"2013";"Abschnitt II PresseFG 2004";"Reitschulgasse 3";"8010";"Graz";"abgeschlossen";"39707.15";"39707.15";"";"Vertriebsförderung von Wochenzeitungen";"";"";""
"Niederösterreichisches Pressehaus Druck- und Verlagsgesellschaft m.b.H.";"NÖN - Niederösterreichische Nachrichten";"Pressefoerderung";"KommAustria";"63531.5";"2013";"Abschnitt II PresseFG 2004";"Gutenbergstraße 12";"3100";"St. Pölten";"abgeschlossen";"31765.75";"31765.75";"";"Vertriebsförderung von Wochenzeitungen";"";"";""
"Ordinariat der Erzdiözese Salzburg";"Rupertusblatt";"Pressefoerderung";"KommAustria";"69487.5";"2013";"Abschnitt II PresseFG 2004";"Kapitelplatz 2";"5020";"Salzburg";"abgeschlossen";"34743.75";"34743.75";"";"Vertriebsförderung von Wochenzeitungen";"";"";""
"Osttiroler Bote Medienunternehmen Ges.m.b.H.";"Osttiroler Bote";"Pressefoerderung";"KommAustria";"8550.2";"2013";"Abschnitt II PresseFG 2004";"Schweizergasse 26";"9900";"Lienz, Osttirol";"abgeschlossen";"4275.1";"4275.1";"";"Vertriebsförderung von Wochenzeitungen";"";"";""
"Raiffeisen Media GmbH";"Raiffeisenzeitung";"Pressefoerderung";"KommAustria";"71628.6";"2013";"Abschnitt II PresseFG 2004";"Friedrich-Wilhelm-Raiffeisenplatz 1";"1020";"Wien";"abgeschlossen";"35814.3";"35814.3";"";"Vertriebsförderung von Wochenzeitungen";"";"";""
"Salzburger Woche Verlags GmbH";"Salzburger Woche";"Pressefoerderung";"KommAustria";"79414.3";"2013";"Abschnitt II PresseFG 2004";"Ing. Ludwig-Pech-Str. 1";"5600";"St. Johann im Pongau";"abgeschlossen";"39707.15";"39707.15";"";"Vertriebsförderung von Wochenzeitungen";"";"";""
"Seelsorgeamt der Diözese Gurk";"Der Sonntag - Kärntner Kirchenzeitung";"Pressefoerderung";"KommAustria";"45741.1";"2013";"Abschnitt II PresseFG 2004";"Tarviser Straße 30";"9020";"Klagenfurt";"abgeschlossen";"22870.55";"22870.55";"";"Vertriebsförderung von Wochenzeitungen";"";"";""
"Slomedia - Slowenisches Medienzentrum GmbH";"NOVICE";"Pressefoerderung";"KommAustria";"27250";"2013";"Abschnitt II PresseFG 2004";"Tarviser Straße 16";"9020";"Klagenfurt";"abgeschlossen";"13625";"13625";"";"Vertriebsförderung von Wochenzeitungen";"";"";""
"Sportzeitung Verlags-GmbH";"Sportzeitung";"Pressefoerderung";"KommAustria";"21508.1";"2013";"Abschnitt II PresseFG 2004";"Linke Wienzeile 40/22";"1060";"Wien";"abgeschlossen";"10754.05";"10754.05";"";"Vertriebsförderung von Wochenzeitungen";"";"";""
"Styria Multi Media Men GmbH & Co KG";"Sportwoche";"Pressefoerderung";"KommAustria";"21838.9";"2013";"Abschnitt II PresseFG 2004";"Geiselbergstraße 15";"1110";"Wien";"abgeschlossen";"10919.45";"10919.45";"";"Vertriebsförderung von Wochenzeitungen";"";"";""
"Unterkärntner Nachrichten Verlags GmbH";"Unterkärntner Nachrichten";"Pressefoerderung";"KommAustria";"8550.2";"2013";"Abschnitt II PresseFG 2004";"Sporergasse 6";"9400";"Wolfsberg, Kärnten";"abgeschlossen";"4275.1";"4275.1";"";"Vertriebsförderung von Wochenzeitungen";"";"";""
"Verlagsgruppe NEWS Gesellschaft m.b.H.";"News";"Pressefoerderung";"KommAustria";"47648.6";"2013";"Abschnitt II PresseFG 2004";"Taborstrasse 1-3";"1020";"Wien";"abgeschlossen";"23824.3";"23824.3";"";"Vertriebsförderung von Wochenzeitungen";"";"";""
"Verlagsgruppe NEWS Gesellschaft m.b.H.";"TV Media";"Pressefoerderung";"KommAustria";"80971.5";"2013";"Abschnitt II PresseFG 2004";"Taborstrasse 1-3";"1020";"Wien";"abgeschlossen";"40485.75";"40485.75";"";"Vertriebsförderung von Wochenzeitungen";"";"";""
"Verlagsgruppe NEWS Gesellschaft m.b.H.";"Profil";"Pressefoerderung";"KommAustria";"64777.2";"2013";"Abschnitt II PresseFG 2004";"Taborstrasse 1-3";"1020";"Wien";"abgeschlossen";"32388.6";"32388.6";"";"Vertriebsförderung von Wochenzeitungen";"";"";""
"Verlagsgruppe NEWS Gesellschaft m.b.H.";"FORMAT";"Pressefoerderung";"KommAustria";"31142.9";"2013";"Abschnitt II PresseFG 2004";"Taborstrasse 1-3";"1020";"Wien";"abgeschlossen";"15571.45";"15571.45";"";"Vertriebsförderung von Wochenzeitungen";"";"";""
"W 3 Verlagsgesellschaft m.b.H.";"Zur Zeit - Die Wochenzeitung für Österreich";"Pressefoerderung";"KommAustria";"45780";"2013";"Abschnitt II PresseFG 2004";"Engelsberggasse 4";"1030";"Wien";"abgeschlossen";"22890";"22890";"";"Vertriebsförderung von Wochenzeitungen";"";"";""
"Wallig Ennstaler Druckerei und Verlag GmbH";"Der Ennstaler";"Pressefoerderung";"KommAustria";"8550.2";"2013";"Abschnitt II PresseFG 2004";"Mitterbergstraße 36";"8962";"Gröbming";"abgeschlossen";"4275.1";"4275.1";"";"Vertriebsförderung von Wochenzeitungen";"";"";""
"Wiener Dom-Verlag Gesellschaft m.b.H.";"Der Sonntag";"Pressefoerderung";"KommAustria";"69487.5";"2013";"Abschnitt II PresseFG 2004";"Stephansplatz 4/6/DG";"1010";"Wien";"abgeschlossen";"34743.75";"34743.75";"";"Vertriebsförderung von Wochenzeitungen";"";"";""
"Verein zur Förderung der Nutzung von Zeitungen in der Schule";"Verein Zeitung in der Schule";"Pressefoerderung";"KommAustria";"256485";"2013";"§ 11 Abs.2 Z 1 PresseFG 2004";"Wipplingerstraße 15";"1010";"Wien";"abgeschlossen";"128242.5";"128242.5";"";"Zuschuss an Vereinigungen zur Leseförderungen";"";"";""
"""Die Presse"" Verlags-Gesellschaft m.b.H. & Co KG";"Die Presse: Unabhängige Tageszeitung für Österreich";"Pressefoerderung";"KommAustria";"40000";"2013";"§ 11 Abs.1 PresseFG 2004";"Hainburger Straße 33";"1030";"Wien";"abgeschlossen";"20000";"20000";"";"Zuschuss zu den Kosten angestellter Auslandskorrespondenten";"";"";""
"Kleine Zeitung GmbH & Co KG";"Kleine Zeitung Steiermark und Kärnten";"Pressefoerderung";"KommAustria";"40000";"2013";"§ 11 Abs.1 PresseFG 2004";"Schönaugasse 64";"8010";"Graz";"abgeschlossen";"20000";"20000";"";"Zuschuss zu den Kosten angestellter Auslandskorrespondenten";"";"";""
"Mediaprint Zeitungs- und Zeitschriftenverlag Gesellschaft m.b.H & Co KG";"KURIER";"Pressefoerderung";"KommAustria";"40000";"2013";"§ 11 Abs.1 PresseFG 2004";"Muthgasse 2";"1190";"Wien";"abgeschlossen";"20000";"20000";"";"Zuschuss zu den Kosten angestellter Auslandskorrespondenten";"";"";""
"Salzburger Nachrichten Verlagsgesellschaft m.b.H. & Co KG";"Salzburger Nachrichten";"Pressefoerderung";"KommAustria";"40000";"2013";"§ 11 Abs.1 PresseFG 2004";"Karolingerstrasse 40";"5020";"Salzburg";"abgeschlossen";"20000";"20000";"";"Zuschuss zu den Kosten angestellter Auslandskorrespondenten";"";"";""
"STANDARD Verlagsgesellschaft m.b.H.";"Der Standard";"Pressefoerderung";"KommAustria";"40000";"2013";"§ 11 Abs.1 PresseFG 2004";"Vordere Zollamtsstraße 13";"1030";"Wien";"abgeschlossen";"20000";"20000";"";"Zuschuss zu den Kosten angestellter Auslandskorrespondenten";"";"";""
"WirtschaftsBlatt Medien GmbH";"WirtschaftsBlatt";"Pressefoerderung";"KommAustria";"40000";"2013";"§ 11 Abs.1 PresseFG 2004";"Hainburger Straße 33";"1030";"Wien";"abgeschlossen";"20000";"20000";"";"Zuschuss zu den Kosten angestellter Auslandskorrespondenten";"";"";""
"""Die Presse"" Verlags-Gesellschaft m.b.H. & Co KG";"Die Presse: Unabhängige Tageszeitung für Österreich";"Pressefoerderung";"KommAustria";"20000";"2013";"§ 10 Abs.1 PresseFG 2004";"Hainburger Straße 33";"1030";"Wien";"abgeschlossen";"10000";"10000";"";"Zuschuss zu den Kosten der redaktionsinternen Ausbildung von Nachwuchsjournalisten - Tageszeitungen";"";"";""
"Kleine Zeitung GmbH & Co KG";"Kleine Zeitung Steiermark und Kärnten";"Pressefoerderung";"KommAustria";"20000";"2013";"§ 10 Abs.1 PresseFG 2004";"Schönaugasse 64";"8010";"Graz";"abgeschlossen";"10000";"10000";"";"Zuschuss zu den Kosten der redaktionsinternen Ausbildung von Nachwuchsjournalisten - Tageszeitungen";"";"";""
"Kärntner Tageszeitungsges.m.b.H";"Kärntner Tageszeitung";"Pressefoerderung";"KommAustria";"5000";"2013";"§ 10 Abs.1 PresseFG 2004";"Karfreitstraße 24";"9020";"Klagenfurt";"abgeschlossen";"2500";"2500";"";"Zuschuss zu den Kosten der redaktionsinternen Ausbildung von Nachwuchsjournalisten - Tageszeitungen";"";"";""
"Mediaprint Zeitungs- und Zeitschriftenverlag Gesellschaft m.b.H & Co KG";"KURIER";"Pressefoerderung";"KommAustria";"19902";"2013";"§ 10 Abs.1 PresseFG 2004";"Muthgasse 2";"1190";"Wien";"abgeschlossen";"9951";"9951";"";"Zuschuss zu den Kosten der redaktionsinternen Ausbildung von Nachwuchsjournalisten - Tageszeitungen";"";"";""
"Mediaprint Zeitungs- und Zeitschriftenverlag Gesellschaft m.b.H & Co KG";"Neue Kronenzeitung";"Pressefoerderung";"KommAustria";"20000";"2013";"§ 10 Abs.1 PresseFG 2004";"Muthgasse 2";"1190";"Wien";"abgeschlossen";"10000";"10000";"";"Zuschuss zu den Kosten der redaktionsinternen Ausbildung von Nachwuchsjournalisten - Tageszeitungen";"";"";""
"NEUE Zeitungs GmbH";"Neue Vorarlberger Tageszeitung";"Pressefoerderung";"KommAustria";"3000";"2013";"§ 10 Abs.1 PresseFG 2004";"Gutenbergstraße 1";"6858";"Schwarzach";"abgeschlossen";"1500";"1500";"";"Zuschuss zu den Kosten der redaktionsinternen Ausbildung von Nachwuchsjournalisten - Tageszeitungen";"";"";""
"OÖ Media Data Vertriebs- und Verlagsges.m.b.H.";"Neues Volksblatt";"Pressefoerderung";"KommAustria";"20000";"2013";"§ 10 Abs.1 PresseFG 2004";"Hafenstraße 1-3";"4010";"Linz";"abgeschlossen";"10000";"10000";"";"Zuschuss zu den Kosten der redaktionsinternen Ausbildung von Nachwuchsjournalisten - Tageszeitungen";"";"";""
"OÖN Redaktion GmbH & CO KG";"OÖ Nachrichten";"Pressefoerderung";"KommAustria";"20000";"2013";"§ 10 Abs.1 PresseFG 2004";"Promenade 23";"4020";"Linz";"abgeschlossen";"10000";"10000";"";"Zuschuss zu den Kosten der redaktionsinternen Ausbildung von Nachwuchsjournalisten - Tageszeitungen";"";"";""
"Russmedia Verlag GmbH";"Vorarlberger Nachrichten";"Pressefoerderung";"KommAustria";"3500";"2013";"§ 10 Abs.1 PresseFG 2004";"Gutenbergstr. 1";"6858";"Schwarzach";"abgeschlossen";"1750";"1750";"";"Zuschuss zu den Kosten der redaktionsinternen Ausbildung von Nachwuchsjournalisten - Tageszeitungen";"";"";""
"Salzburger Nachrichten Verlagsgesellschaft m.b.H. & Co KG";"Salzburger Nachrichten";"Pressefoerderung";"KommAustria";"10500";"2013";"§ 10 Abs.1 PresseFG 2004";"Karolingerstrasse 40";"5020";"Salzburg";"abgeschlossen";"5250";"5250";"";"Zuschuss zu den Kosten der redaktionsinternen Ausbildung von Nachwuchsjournalisten - Tageszeitungen";"";"";""
"Salzburger Volkszeitung GmbH & Co KG";"SVZ Salzburger Volkszeitung";"Pressefoerderung";"KommAustria";"20000";"2013";"§ 10 Abs.1 PresseFG 2004";"Schrannengasse 6";"5020";"Salzburg";"abgeschlossen";"10000";"10000";"";"Zuschuss zu den Kosten der redaktionsinternen Ausbildung von Nachwuchsjournalisten - Tageszeitungen";"";"";""
"STANDARD Verlagsgesellschaft m.b.H.";"Der Standard";"Pressefoerderung";"KommAustria";"17964";"2013";"§ 10 Abs.1 PresseFG 2004";"Vordere Zollamtsstraße 13";"1030";"Wien";"abgeschlossen";"8982";"8982";"";"Zuschuss zu den Kosten der redaktionsinternen Ausbildung von Nachwuchsjournalisten - Tageszeitungen";"";"";""
"BVZ Burgenländische Volkszeitung GmbH";"BVZ - Burgenländische Volkszeitung";"Pressefoerderung";"KommAustria";"0";"2013";"§ 10 Abs.1 PresseFG 2004";"Hauptstraße 52a";"7000";"Eisenstadt";"abgelehnt";"0";"0";"";"Zuschuss zu den Kosten der redaktionsinternen Ausbildung von Nachwuchsjournalisten - Wochenzeitungen";"";"";""
"Falter - Zeitschriften Gesellschaft m.b.H.";"Falter";"Pressefoerderung";"KommAustria";"20000";"2013";"§ 10 Abs.1 PresseFG 2004";"Marc-Aurel-Straße 9";"1010";"Wien";"abgeschlossen";"10000";"10000";"";"Zuschuss zu den Kosten der redaktionsinternen Ausbildung von Nachwuchsjournalisten - Wochenzeitungen";"";"";""
"Niederösterreichisches Pressehaus Druck- und Verlagsgesellschaft m.b.H.";"NÖN - Niederösterreichische Nachrichten";"Pressefoerderung";"KommAustria";"20000";"2013";"§ 10 Abs.1 PresseFG 2004";"Gutenbergstraße 12";"3100";"St. Pölten";"abgeschlossen";"10000";"10000";"";"Zuschuss zu den Kosten der redaktionsinternen Ausbildung von Nachwuchsjournalisten - Wochenzeitungen";"";"";""
"Salzburger Woche Verlags GmbH";"Salzburger Woche";"Pressefoerderung";"KommAustria";"13000";"2013";"§ 10 Abs.1 PresseFG 2004";"Ing. Ludwig-Pech-Str. 1";"5600";"St. Johann im Pongau";"abgeschlossen";"6500";"6500";"";"Zuschuss zu den Kosten der redaktionsinternen Ausbildung von Nachwuchsjournalisten - Wochenzeitungen";"";"";""
"Verlagsgruppe NEWS Gesellschaft m.b.H.";"News";"Pressefoerderung";"KommAustria";"17214";"2013";"§ 10 Abs.1 PresseFG 2004";"Taborstrasse 1-3";"1020";"Wien";"abgeschlossen";"8607";"8607";"";"Zuschuss zu den Kosten der redaktionsinternen Ausbildung von Nachwuchsjournalisten - Wochenzeitungen";"";"";""
"Verlagsgruppe NEWS Gesellschaft m.b.H.";"TV Media";"Pressefoerderung";"KommAustria";"20000";"2013";"§ 10 Abs.1 PresseFG 2004";"Taborstrasse 1-3";"1020";"Wien";"abgeschlossen";"10000";"10000";"";"Zuschuss zu den Kosten der redaktionsinternen Ausbildung von Nachwuchsjournalisten - Wochenzeitungen";"";"";""
"Forum Journalismus und Medien Wien - Verein Wiener Medienfortbildung";"Erste Hilfe für Freie";"Pressefoerderung";"KommAustria";"0";"2013";"§ 11 Abs.3 PresseFG 2004";"Karl-Farkas-Gasse 18";"1030";"Wien";"abgelehnt";"0";"0";"";"Zuschuss zu Forschungsprojekten";"";"";""
"Medienhaus Wien - Forschung und Weiterbildung GmbH";"Publizisitk.net: Aus- und Weiterbildungswege für JournalistInnen in Österreich, Deutschland und der Schweiz";"Pressefoerderung";"KommAustria";"18000";"2013";"§ 11 Abs.3 PresseFG 2004";"Alser Straße 22/8";"1090";"Wien";"abgeschlossen";"9000";"9000";"";"Zuschuss zu Forschungsprojekten";"";"";""
"ÖCV und ÖAHB";"ACADEMIA - Zeitschrift für Politik, Wirtschaft, Religion, Kultur";"Publizistikfoerderung";"KommAustria";"4501.73";"2013";"Abschnitt II PubFG 1984";"Lerchenfelderstraße 14";"1080";"Wien";"abgeschlossen";"";"";"";"";"";"";""
"Arbeitskreis Emanzipation und Partnerschaft (AEP)";"AEP-Informationen - feministische Zeitschrift für Politik und Gesellschaft";"Publizistikfoerderung";"KommAustria";"4501.73";"2013";"Abschnitt II PubFG 1984";"Müllerstr. 26";"6020";"Innsbruck";"abgeschlossen";"";"";"";"";"";"";""
"Freie Österreichische Jugend - Bewegung für Sozialismus";"AKIN";"Publizistikfoerderung";"KommAustria";"4501.73";"2013";"Abschnitt II PubFG 1984";"Belvederegasse 10";"1040";"Wien";"abgeschlossen";"";"";"";"";"";"";""
"Alfred Klahr Gesellschaft. Verein zur Erforschung der Geschichte der Arbeiterbewegung";"Alfred Klahr Gesellschaft. Mitteilungen";"Publizistikfoerderung";"KommAustria";"1360";"2013";"Abschnitt II PubFG 1984";"Drechslergasse 42";"1140";"Wien";"abgeschlossen";"";"";"";"";"";"";""
"Verein von AusländerInnen- u. Flüchtlingshilfsorganisationen u. betreuerInnen";"ASYL AKTUELL";"Publizistikfoerderung";"KommAustria";"0";"2013";"Abschnitt II PubFG 1984";"Burggasse 81/7";"1070";"Wien";"abgelehnt";"";"";"";"";"";"";""
"Ballesterer Zeitschriftenverlag GmbH";"Ballesterer Fußballmagazin";"Publizistikfoerderung";"KommAustria";"7502.88";"2013";"Abschnitt II PubFG 1984";"Porzellangasse 11/69";"1090";"Wien";"abgeschlossen";"";"";"";"";"";"";""
"Komische Künste Verlagsges.m.b.H.";"BANANENBLATT - Das Magazin der Komischen Künste";"Publizistikfoerderung";"KommAustria";"1360";"2013";"Abschnitt II PubFG 1984";"Museumsquartier, Museumsplatz 1";"1070";"Wien";"abgeschlossen";"";"";"";"";"";"";""
"Gesellschaft für bedrohte Völker Österreich";"BEDROHTE VÖLKER";"Publizistikfoerderung";"KommAustria";"4501.73";"2013";"Abschnitt II PubFG 1984";"Untere Viaduktg. 53/7A";"1030";"Wien";"abgeschlossen";"";"";"";"";"";"";""
"Verein Initiativ für behinderte Kinder und Jugendliche";"BEHINDERTE MENSCHEN - Zeitschrift für gemeinsames Leben, Lernen und Arbeiten";"Publizistikfoerderung";"KommAustria";"9003.46";"2013";"Abschnitt II PubFG 1984";"Alberstraße 8";"8010";"Graz";"abgeschlossen";"";"";"";"";"";"";""
"Bizeps - Zentrum für selbstbestimmtes Leben";"BIZEPS INFO";"Publizistikfoerderung";"KommAustria";"1360";"2013";"Abschnitt II PubFG 1984";"Schönngasse 15-17/4";"1020";"Wien";"abgeschlossen";"";"";"";"";"";"";""
"Mittelschüler-Kartell-Verband";"COULEUR";"Publizistikfoerderung";"KommAustria";"0";"2013";"Abschnitt II PubFG 1984";"Laudongasse 16/3/1";"1080";"Wien";"abgelehnt";"";"";"";"";"";"";""
"Österreichisch-Kubanische Gesellschaft - ÖKG";"CUBA SI";"Publizistikfoerderung";"KommAustria";"4501.73";"2013";"Abschnitt II PubFG 1984";"Seisgasse 1";"1040";"Wien";"abgeschlossen";"";"";"";"";"";"";""
"FI Dr. Lars Amann, Evang. Schulamt Wien, Abt. Pflichtschulen";"Das WORT  Evangelische Beiträge zu Bildung und Unterricht";"Publizistikfoerderung";"KommAustria";"4501.73";"2013";"Abschnitt II PubFG 1984";"Hamburgerstraße 3";"1050";"Wien";"abgeschlossen";"";"";"";"";"";"";""
"Österreichisches Frauenforum Feministische Theologie";"Der APFEL  Zeitschrift des Österreichischen Frauenforums Feministische Theologie";"Publizistikfoerderung";"KommAustria";"4501.73";"2013";"Abschnitt II PubFG 1984";"Baum 1";"4880";"Berg im Attergau";"abgeschlossen";"";"";"";"";"";"";""
"Verein Gesellschaft und Politik - für den Diskurs über den Menschen";"Der Funke";"Publizistikfoerderung";"KommAustria";"4501.73";"2013";"Abschnitt II PubFG 1984";"Lustkandlgasse 10/1";"1090";"Wien";"abgeschlossen";"";"";"";"";"";"";""
"Forschungs- und Kulturverein für Kontinentalamerika und die Karibik - KonaK";"Der KONAK";"Publizistikfoerderung";"KommAustria";"4501.73";"2013";"Abschnitt II PubFG 1984";"Arthaberplatz 4/4";"1100";"Wien";"abgeschlossen";"";"";"";"";"";"";""
"Friedensbüro Salzburg";"Der KRANICH";"Publizistikfoerderung";"KommAustria";"1360";"2013";"Abschnitt II PubFG 1984";"Franz-Josef-Straße 3/3";"5020";"Salzburg";"abgeschlossen";"";"";"";"";"";"";""
"Merker Verein, Dr. Sieglinde Pfabigan";"Der NEUE MERKER";"Publizistikfoerderung";"KommAustria";"1360";"2013";"Abschnitt II PubFG 1984";"Peitlg. 7/3/4";"1210";"Wien";"abgeschlossen";"";"";"";"";"";"";""
"Koordinierungsausschuss für christlich-jüdische Zusammenarbeit";"DIALOG  Du Siach Christlich-jüdische Informationen";"Publizistikfoerderung";"KommAustria";"4501.73";"2013";"Abschnitt II PubFG 1984";"Tandelmarktgasse 5";"1020";"Wien";"abgeschlossen";"";"";"";"";"";"";""
"Alternative und Grüne GewerkschafterInnen - AUGE/UG";"Die ALTERNATIVE";"Publizistikfoerderung";"KommAustria";"4501.73";"2013";"Abschnitt II PubFG 1984";"Belvederegasse 10";"1040";"Wien";"abgeschlossen";"";"";"";"";"";"";""
"Gewerkschaftlicher Linksblock";"DIE ARBEIT";"Publizistikfoerderung";"KommAustria";"2040";"2013";"Abschnitt II PubFG 1984";"Hugogasse 8";"1110";"Wien";"abgeschlossen";"";"";"";"";"";"";""
"Israelitische Kultusgemeinde Wien";"Die GEMEINDE INSIDER";"Publizistikfoerderung";"KommAustria";"0";"2013";"Abschnitt II PubFG 1984";"Seitenstettengasse 4";"1010";"Wien";"abgelehnt";"";"";"";"";"";"";""
"Verein für kulturelle Informationen";"Die SEITEN des Vereins für kulturelle Information";"Publizistikfoerderung";"KommAustria";"1360";"2013";"Abschnitt II PubFG 1984";"Spengergasse 40/4";"1050";"Wien";"abgeschlossen";"";"";"";"";"";"";""
"Evangelische Frauenarbeit in Österr";"EFA - Evangelische Frauenarbeit in Österreich";"Publizistikfoerderung";"KommAustria";"4501.73";"2013";"Abschnitt II PubFG 1984";"Blumengasse 4/6";"1180";"Wien";"abgeschlossen";"";"";"";"";"";"";""
"Katholischer Familienverband Österreichs";"EHE UND FAMILIEN";"Publizistikfoerderung";"KommAustria";"4501.73";"2013";"Abschnitt II PubFG 1984";"Spiegelgasse 3/3/9";"1010";"Wien";"abgeschlossen";"";"";"";"";"";"";""
"Patrice Fuchs";"FAMILIE ROCKT!";"Publizistikfoerderung";"KommAustria";"0";"2013";"Abschnitt II PubFG 1984";"Stollgasse 3/6";"1070";"Wien";"abgelehnt";"";"";"";"";"";"";""
"Andreas Fellinger";"freiStil, Magazin für Musik und Umgebung";"Publizistikfoerderung";"KommAustria";"0";"2013";"Abschnitt II PubFG 1984";"Gloriettegasse 17-19/4/10";"1130";"Wien";"abgelehnt";"";"";"";"";"";"";""
"Österreichischer Gehörlosenbund";"GEBÄRDENSACHE";"Publizistikfoerderung";"KommAustria";"4501.73";"2013";"Abschnitt II PubFG 1984";"Waldgasse 13/2";"1100";"Wien";"abgeschlossen";"";"";"";"";"";"";""
"GEDENKDIENST - Verein für historisch-politische Bildungsarbeit und Internationalen Dialog";"GEDENKDIENST";"Publizistikfoerderung";"KommAustria";"4501.73";"2013";"Abschnitt II PubFG 1984";"Margaretenstraße 166/4";"1050";"Wien";"abgeschlossen";"";"";"";"";"";"";""
"IG Freie Theaterarbeit";"GIFT - Zeitschrift für freies Theater";"Publizistikfoerderung";"KommAustria";"4501.73";"2013";"Abschnitt II PubFG 1984";"Gumpendorferstraße 63B";"1060";"Wien";"abgeschlossen";"";"";"";"";"";"";""
"Akademisches Forum für Außenpolitik - Österreich (Hochschulliga für die Vereinten Nationen)";"GLOBAL View";"Publizistikfoerderung";"KommAustria";"4501.73";"2013";"Abschnitt II PubFG 1984";"Johannesgasse 2/2/32";"1010";"Wien";"abgeschlossen";"";"";"";"";"";"";""
"Verein für sozialwissenschaftliche Forschung";"GRUNDRISSE  Zeitschrift für Linke Theorie & Debatte";"Publizistikfoerderung";"KommAustria";"4501.73";"2013";"Abschnitt II PubFG 1984";"Weißgasse 4";"1170";"Wien";"abgeschlossen";"";"";"";"";"";"";""
"Verein für Geschichte u. Sozialkunde c/o Institut f. Wirtschafts- und Sozialgeschichte der Universität Wien";"HISTORISCHE SOZIALKUNDE";"Publizistikfoerderung";"KommAustria";"4501.73";"2013";"Abschnitt II PubFG 1984";"Universitätsring 1";"1010";"Wien";"abgeschlossen";"";"";"";"";"";"";""
"Dokumentations- und Kooperationszentrum Südliches Afrika";"INDABA - Das SADOCC-Magazin für das Südliche Afrika";"Publizistikfoerderung";"KommAustria";"4501.73";"2013";"Abschnitt II PubFG 1984";"Favoritenstraße 38/18/1";"1040";"Wien";"abgeschlossen";"";"";"";"";"";"";""
"Verein ARGE für internationale Publizistik";"INTERNATIONAL - Zeitschrift für internationale Politik";"Publizistikfoerderung";"KommAustria";"4501.73";"2013";"Abschnitt II PubFG 1984";"Laaer Berg Straße 43/5. Stock";"1100";"Wien";"abgeschlossen";"";"";"";"";"";"";""
"Leihbücherei, Druckerei u. Lehrmittelverlag am Bundes-Blindenerziehungsinstitut";"JOHANN WILHELM KLEIN";"Publizistikfoerderung";"KommAustria";"4501.73";"2013";"Abschnitt II PubFG 1984";"Wittelsbachstr. 5";"1020";"Wien";"abgeschlossen";"";"";"";"";"";"";""
"Studien Verlag Ges.m.b.H";"JOURNAL für SCHULENTWICKLUNG";"Publizistikfoerderung";"KommAustria";"4501.73";"2013";"Abschnitt II PubFG 1984";"Erlerstraße 10";"6020";"Innsbruck";"abgeschlossen";"";"";"";"";"";"";""
"Evangelische Jugend Österreich";"Junge Gemeinde";"Publizistikfoerderung";"KommAustria";"4501.73";"2013";"Abschnitt II PubFG 1984";"Hamburgerstraße 3";"1050";"Wien";"abgeschlossen";"";"";"";"";"";"";""
"Verlag Österreich G.m.b.H.";"JURIDIKUM - zeitschrift für kritik/recht/gesellschaft";"Publizistikfoerderung";"KommAustria";"4501.73";"2013";"Abschnitt II PubFG 1984";"Schottenbastei 10-16";"1010";"Wien";"abgeschlossen";"";"";"";"";"";"";""
"Verein für gewaltlose Erziehung";"KINDERSCHUTZ AKTIV";"Publizistikfoerderung";"KommAustria";"2040";"2013";"Abschnitt II PubFG 1984";"Obere Augartenstraße 26-28";"1020";"Wien";"abgeschlossen";"";"";"";"";"";"";""
"Rudolf Schermann Gesellschaft m.b.H";"KIRCHE IN BEWEGUNG";"Publizistikfoerderung";"KommAustria";"9003.46";"2013";"Abschnitt II PubFG 1984";"Keplergasse 8";"1100";"Wien";"abgeschlossen";"";"";"";"";"";"";""
"Altkatholische Kirche Österreichs";"KIRCHE IN BEWEGUNG";"Publizistikfoerderung";"KommAustria";"4501.73";"2013";"Abschnitt II PubFG 1984";"Schottenring 17/1/3/12";"1010";"Wien";"abgeschlossen";"";"";"";"";"";"";""
"Sozialwissenschaftliche Vereinigung";"KONTRASTE - Presse- und Informationsdienst für Sozialpolitik";"Publizistikfoerderung";"KommAustria";"4501.73";"2013";"Abschnitt II PubFG 1984";"Altenbergerstraße 69";"4040";"Linz";"abgeschlossen";"";"";"";"";"";"";""
"Aktion Kritisches Christentum";"KRITISCHES CHRISTENTUM";"Publizistikfoerderung";"KommAustria";"1360";"2013";"Abschnitt II PubFG 1984";"Mühlgasse 25/5";"1040";"Wien";"abgeschlossen";"";"";"";"";"";"";""
"Sonderzahl Verlagsgesellschaft m.b.H";"Kurswechsel";"Publizistikfoerderung";"KommAustria";"7502.88";"2013";"Abschnitt II PubFG 1984";"Große Neugasse 35/15";"1040";"Wien";"abgeschlossen";"";"";"";"";"";"";""
"Homosexuelle Initiative (HOSI) Wien";"LAMBDA - Nachrichten";"Publizistikfoerderung";"KommAustria";"4501.73";"2013";"Abschnitt II PubFG 1984";"Heumühlgasse 14/1";"1040";"Wien";"abgeschlossen";"";"";"";"";"";"";""
"Informationsgruppe Lateinamerika-IGLA";"LATEINAMERIKA ANDERS";"Publizistikfoerderung";"KommAustria";"4501.73";"2013";"Abschnitt II PubFG 1984";"Währingerstraße 59";"1090";"Wien";"abgeschlossen";"";"";"";"";"";"";""
"Verein zur Förderung medialer Vielfalt und Qualität";"MALMOE";"Publizistikfoerderung";"KommAustria";"6002.31";"2013";"Abschnitt II PubFG 1984";"Belvederegasse 24/15";"1040";"Wien";"abgeschlossen";"";"";"";"";"";"";""
"Arbeitskreis für historische Kommunikationsforschung (AHK)";"MEDIEN UND ZEIT";"Publizistikfoerderung";"KommAustria";"6002.31";"2013";"Abschnitt II PubFG 1984";"Währingerstraße 29";"1090";"Wien";"abgeschlossen";"";"";"";"";"";"";""
"Österreichische Gesellschaft für Kommunikationswissenschaft - ÖGK";"MEDIEN JOURNAL";"Publizistikfoerderung";"KommAustria";"4501.73";"2013";"Abschnitt II PubFG 1984";"Rudolfskai 42";"5020";"Salzburg";"abgeschlossen";"";"";"";"";"";"";""
"ERF Medien Österreich";"MEHR";"Publizistikfoerderung";"KommAustria";"1360";"2013";"Abschnitt II PubFG 1984";"Lemböckgasse 47b/Top 11";"1230";"Wien";"abgeschlossen";"";"";"";"";"";"";""
"Kirchliches Institut Canisiuswerk - Zentrum für geistliche Berufe";"MITEINANDER  Welt und geistliche Berufung";"Publizistikfoerderung";"KommAustria";"1360";"2013";"Abschnitt II PubFG 1984";"Stephansplatz 6";"1010";"Wien";"abgeschlossen";"";"";"";"";"";"";""
"Verband der Chemielehrer/-innen Österreichs";"MOLECOOL - Die Welt der Naturwissenschaften";"Publizistikfoerderung";"KommAustria";"0";"2013";"Abschnitt II PubFG 1984";"Dürnbergstraße 71";"5164";"Seeham";"abgelehnt";"";"";"";"";"";"";""
"Kath. Sozialakademie Österreichs";"NACHRICHTEN und Stellungnahmen der Kath. Sozialakademie Österreichs";"Publizistikfoerderung";"KommAustria";"4501.73";"2013";"Abschnitt II PubFG 1984";"Schottenring 35/DG";"1010";"Wien";"abgeschlossen";"";"";"";"";"";"";""
"ARGE für Informationen über Nicaragua";"NICARAGUA Nachrichten";"Publizistikfoerderung";"KommAustria";"1360";"2013";"Abschnitt II PubFG 1984";"Hauptstraße 69";"3494";"Brunn im Felde";"abgeschlossen";"";"";"";"";"";"";""
"Verein Arbeitsgemeinschaft Jüdisches Forum";"NU - News über uns";"Publizistikfoerderung";"KommAustria";"7502.88";"2013";"Abschnitt II PubFG 1984";"Esteplatz 6/5";"1030";"Wien";"abgeschlossen";"";"";"";"";"";"";""
"Pax Christi Österreich";"PAX  Die Zeitung der Friedensbewegung Pax Christi Österreich";"Publizistikfoerderung";"KommAustria";"1360";"2013";"Abschnitt II PubFG 1984";"Mengerstr. 23";"4040";"Linz";"abgeschlossen";"";"";"";"";"";"";""
"Dr. Gerfried Sperl";"PHOENIX";"Publizistikfoerderung";"KommAustria";"1360";"2013";"Abschnitt II PubFG 1984";"Mariahilferstraße 117";"1060";"Wien";"abgeschlossen";"";"";"";"";"";"";""
"Verein zur Förderung der Information über Schwule, Lesben und TransGender-Personen";"PRIDE - Das lesbisch/schwule Österreichmagazin";"Publizistikfoerderung";"KommAustria";"4501.73";"2013";"Abschnitt II PubFG 1984";"Gerstnerstraße 13";"4040";"Linz";"abgeschlossen";"";"";"";"";"";"";""
"Forum Katholischer Akademiker/innen Österreichs";"QUART Zeitschrift des Forums Kunst-Wissenschaft-Medien";"Publizistikfoerderung";"KommAustria";"4501.73";"2013";"Abschnitt II PubFG 1984";"Währingerstraße 2-4";"1090";"Wien";"abgeschlossen";"";"";"";"";"";"";""
"Evangelischer Oberkirchenrat H.B.";"REFORMIERTES KIRCHENBLATT";"Publizistikfoerderung";"KommAustria";"9003.46";"2013";"Abschnitt II PubFG 1984";"Dorotheergasse 16";"1010";"Wien";"abgeschlossen";"";"";"";"";"";"";""
"Petrus Bsteh, Forum für Weltreligionen";"RELIGIONEN UNTERWEGS";"Publizistikfoerderung";"KommAustria";"4501.73";"2013";"Abschnitt II PubFG 1984";"Fasangartengasse 101/7";"1130";"Wien";"abgeschlossen";"";"";"";"";"";"";""
"Evangelischer Presseverband in Österreich";"SAAT  Evangelische Kirchenzeitung für Österreich";"Publizistikfoerderung";"KommAustria";"10504.04";"2013";"Abschnitt II PubFG 1984";"Ungargasse 9/10";"1030";"Wien";"abgeschlossen";"";"";"";"";"";"";""
"Verein der Freunde der Katholischen Medien Akademie";"SCHOTTENGASSE";"Publizistikfoerderung";"KommAustria";"4501.73";"2013";"Abschnitt II PubFG 1984";"Schottengasse 3/7/39";"1010";"Wien";"abgeschlossen";"";"";"";"";"";"";""
"Studien Verlag Ges.m.b.H";"SCHULHEFT";"Publizistikfoerderung";"KommAustria";"7502.88";"2013";"Abschnitt II PubFG 1984";"Erlerstraße 10";"6020";"Innsbruck";"abgeschlossen";"";"";"";"";"";"";""
"Hilfsgemeinschaft der Blinden und Sehschwachen Österreichs";"SICHTWEISEN";"Publizistikfoerderung";"KommAustria";"0";"2013";"Abschnitt II PubFG 1984";"Jägerstraße 36";"1200";"Wien";"abgelehnt";"";"";"";"";"";"";""
"OBDS - Oesterr. Berufsverband diplomierter SozialarbeiterInnen";"SIO - Sozialarbeit in Österreich";"Publizistikfoerderung";"KommAustria";"4501.73";"2013";"Abschnitt II PubFG 1984";"Mariahilferstr. 81/1/3/14";"1060";"Wien";"abgeschlossen";"";"";"";"";"";"";""
"Menschen für Solidarität, Ökologie und Lebensstil";"SOL";"Publizistikfoerderung";"KommAustria";"4501.73";"2013";"Abschnitt II PubFG 1984";"Penzinger Straße 18/2";"1140";"Wien";"abgeschlossen";"";"";"";"";"";"";""
"Interdisziplinäres Forschungszentrum für Technik, Arbeit und Kultur (IFZ)";"SOZIALE TECHNIK";"Publizistikfoerderung";"KommAustria";"4501.73";"2013";"Abschnitt II PubFG 1984";"Schlögelgasse 2";"8010";"Graz";"abgeschlossen";"";"";"";"";"";"";""
"Internationaler Versöhnungsbund - österreichischer Zweig (IVB-ÖZ)";"SPINNRAD";"Publizistikfoerderung";"KommAustria";"4501.73";"2013";"Abschnitt II PubFG 1984";"Ledererg. 23/3/27";"1080";"Wien";"abgeschlossen";"";"";"";"";"";"";""
"Evangelischer Bund in Österreich";"STANDPUNKT";"Publizistikfoerderung";"KommAustria";"4501.73";"2013";"Abschnitt II PubFG 1984";"Ungargasse 9";"1030";"Wien";"abgeschlossen";"";"";"";"";"";"";""
"Dr. Heinz Kienzl";"SWS-RUNDSCHAU";"Publizistikfoerderung";"KommAustria";"4501.73";"2013";"Abschnitt II PubFG 1984";"Maria Theresien-Straße 9/8B";"1090";"Wien";"abgeschlossen";"";"";"";"";"";"";""
"Verein Salzburg  Kommunikation & Kultur";"TALK TOGETHER";"Publizistikfoerderung";"KommAustria";"4501.73";"2013";"Abschnitt II PubFG 1984";"E.-Heinrich-Straße 1b/10";"5020";"Salzburg";"abgeschlossen";"";"";"";"";"";"";""
"Gerald Grassl";"TARANTEL";"Publizistikfoerderung";"KommAustria";"4501.73";"2013";"Abschnitt II PubFG 1984";"Vivariumstraße 8/4/18";"1020";"Wien";"abgeschlossen";"";"";"";"";"";"";""
"Verein Die Bunten - Forum für Würde, Gerechtigkeit und Demokratie";"THE GLOBAL PLAYER";"Publizistikfoerderung";"KommAustria";"9003.46";"2013";"Abschnitt II PubFG 1984";"Rotenlöwengasse 12/1";"1090";"Wien";"abgeschlossen";"";"";"";"";"";"";""
"Offiziersgesellschaft Wien";"UNSER AUFTRAG";"Publizistikfoerderung";"KommAustria";"2040";"2013";"Abschnitt II PubFG 1984";"Schwarzenbergplatz 1";"1010";"Wien";"abgeschlossen";"";"";"";"";"";"";""
"Ursache & Wirkung Verein";"URSACHE & WIRKUNG - Buddhistische Aspekte";"Publizistikfoerderung";"KommAustria";"4501.73";"2013";"Abschnitt II PubFG 1984";"Fleischmarkt 16/1/1 DG";"1010";"Wien";"abgeschlossen";"";"";"";"";"";"";""
"Verein für Gesellschaftskritik";"VOLKSSTIMME";"Publizistikfoerderung";"KommAustria";"1360";"2013";"Abschnitt II PubFG 1984";"Drechslergasse 42";"1140";"Wien";"abgeschlossen";"";"";"";"";"";"";""
"Sozialistische LinksPartei (SLP)";"VORWÄRTS";"Publizistikfoerderung";"KommAustria";"1360";"2013";"Abschnitt II PubFG 1984";"Pappenheimgasse 2/1";"1200";"Wien";"abgeschlossen";"";"";"";"";"";"";""
"Solidar-Werkstatt Österreich";"WERKSTATT-Blatt";"Publizistikfoerderung";"KommAustria";"1360";"2013";"Abschnitt II PubFG 1984";"Waltherstr. 15b";"4020";"Linz";"abgeschlossen";"";"";"";"";"";"";""
"JMV Medien- und Verlags-GmbH";"WINA - Das Jüdische Stadtmagazin";"Publizistikfoerderung";"KommAustria";"4501.73";"2013";"Abschnitt II PubFG 1984";"Seitenstettengasse 4";"1010";"Wien";"abgeschlossen";"";"";"";"";"";"";""
"Österreichische Kinderfreunde";"WIR";"Publizistikfoerderung";"KommAustria";"4501.73";"2013";"Abschnitt II PubFG 1984";"Rauhensteingasse 5/5";"1010";"Wien";"abgeschlossen";"";"";"";"";"";"";""
"YOU! Verein - Jugendverein für christlich/katholische Werte";"YOU! MAGAZIN";"Publizistikfoerderung";"KommAustria";"4501.73";"2013";"Abschnitt II PubFG 1984";"Ebendorferstraße 8";"1010";"Wien";"abgeschlossen";"";"";"";"";"";"";""
"Kath. Männerbewegung der Diözese St. Pölten";"YPSILON - Magazin für Männer - Katholische Männerbewegung";"Publizistikfoerderung";"KommAustria";"1360";"2013";"Abschnitt II PubFG 1984";"Klostergasse 15";"3100";"St. Pölten";"abgeschlossen";"";"";"";"";"";"";""
"Kath. Arbeitnehmer - Bildungs- und Hilfswerk Österreich";"ZEITZEICHEN";"Publizistikfoerderung";"KommAustria";"4501.73";"2013";"Abschnitt II PubFG 1984";"Spiegelgasse 3/2";"1010";"Wien";"abgeschlossen";"";"";"";"";"";"";""
"Institut für Österreichkunde";"Österreich in Geschichte und Literatur mit Geographie (ÖGL)";"Publizistikfoerderung";"KommAustria";"0";"2013";"Abschnitt II PubFG 1984";"Hanuschgasse 3/Stiege 4/1046";"1010";"Wien";"abgelehnt";"";"";"";"";"";"";""
"Facultas Verlags- und Buchhandels AG";"ÖSTERREICHISCHE ZEITSCHRIFT FÜR POLITIKWISSENSCHAFT (ÖZP)";"Publizistikfoerderung";"KommAustria";"7502.88";"2013";"Abschnitt II PubFG 1984";"Stolberggasse 26";"1050";"Wien";"abgeschlossen";"";"";"";"";"";"";""
"Aichholzer Filmproduktion GmbH";"Spuren des Bösen IV - Schande";"Fernsehfonds";"RTR";"453000";"2013";"Film";"";"";"";"";"";"";"Spuren des Bösen IV - Schande";"Film";"3. Einreichtermin";"90";"1898011.15"
"Aichholzer Filmproduktion GmbH";"Die verbotene Frau";"Fernsehfonds";"RTR";"200000";"2013";"Film";"";"";"";"";"";"";"Die verbotene Frau";"Film";"2. Einreichtermin";"92";"2410681.72"
"ALLEGRO Filmproduktionsgesellschaft m.b.H.";"Alles Fleisch ist Gras";"Fernsehfonds";"RTR";"500515";"2013";"Film";"";"";"";"";"";"";"Alles Fleisch ist Gras";"Film";"3. Einreichtermin";"90";"1748311.17"
"DOR FILM Produktionsgesellschaft m.b.H.";"Das Attentat - Sarajevo 1914";"Fernsehfonds";"RTR";"850000";"2013";"Film";"";"";"";"";"";"";"Das Attentat - Sarajevo 1914";"Film";"3. Einreichtermin";"90";"3511560.86"
"DOR FILM Produktionsgesellschaft m.b.H.";"Der taumelnde Kontinent";"Fernsehfonds";"RTR";"142000";"2013";"Dokumentation";"";"";"";"";"";"";"Der taumelnde Kontinent";"Dokumentation";"1. Einreichtermin";"2 x 80";"710501.97"
"Eclypse Filmpartner Film- und Fernsehproduktion GmbH";"Die Seelen im Feuer";"Fernsehfonds";"RTR";"600000";"2013";"Film";"";"";"";"";"";"";"Die Seelen im Feuer";"Film";"2. Einreichtermin";"105";"4266785"
"EPO - Filmproduktionsgesellschaft m.b.H.";"Hoch Hinaus";"Fernsehfonds";"RTR";"19793";"2013";"Dokumentation";"";"";"";"";"";"";"Hoch Hinaus";"Dokumentation";"2. Einreichtermin";"45";"99628.33"
"EPO - Filmproduktionsgesellschaft m.b.H.";"Menschen, Mythen und Legenden";"Fernsehfonds";"RTR";"599000";"2013";"Dokumentation";"";"";"";"";"";"";"Menschen, Mythen und Legenden";"Dokumentation";"1. Einreichtermin";"12 x 50";"3063883.28"
"EPO - Filmproduktionsgesellschaft m.b.H.";"Luis Trenker - Der schmale Grat der Wahrheit";"Fernsehfonds";"RTR";"627130";"2013";"Film";"";"";"";"";"";"";"Luis Trenker - Der schmale Grat der Wahrheit";"Film";"2. Einreichtermin";"90";"4277630"
"EPO - Filmproduktionsgesellschaft m.b.H.";"Polt V";"Fernsehfonds";"RTR";"588000";"2013";"Film";"";"";"";"";"";"";"Polt V";"Film";"1. Einreichtermin";"90";"2077426.36"
"EPO - Filmproduktionsgesellschaft m.b.H.";"Peter Roseggers Waldheimat - Ein Jahr im Zauberwald";"Fernsehfonds";"RTR";"70000";"2013";"Dokumentation";"";"";"";"";"";"";"Peter Roseggers Waldheimat - Ein Jahr im Zauberwald";"Dokumentation";"2. Einreichtermin";"52";"363757.18"
"EPO - Filmproduktionsgesellschaft m.b.H.";"Erika Pluhar - Trotzdem. Mein Leben";"Fernsehfonds";"RTR";"32000";"2013";"Dokumentation";"";"";"";"";"";"";"Erika Pluhar - Trotzdem. Mein Leben";"Dokumentation";"2. Einreichtermin";"1 x 90, 1 x 52";"178417.62"
"Felix Breisach Medienwerkstatt GmbH";"900 Jahre Klosterneuburg";"Fernsehfonds";"RTR";"34229.2";"2013";"Dokumentation";"";"";"";"";"";"";"900 Jahre Klosterneuburg";"Dokumentation";"3. Einreichtermin";"45";"171144.08"
"FILM27 Multimedia Produktions GmbH";"Die Fremde und das Dorf";"Fernsehfonds";"RTR";"358992";"2013";"Film";"";"";"";"";"";"";"Die Fremde und das Dorf";"Film";"2. Einreichtermin";"90";"1834832.77"
"FISCHERFILM GmbH";"Joschi und die Stars - die Serie";"Fernsehfonds";"RTR";"28000";"2013";"Dokumentation";"";"";"";"";"";"";"Joschi und die Stars - die Serie";"Dokumentation";"2. Einreichtermin";"2 x 30";"140649"
"Gernot Stadler";"Auf den Schienen des Doppeladlers";"Fernsehfonds";"RTR";"39900";"2013";"Dokumentation";"";"";"";"";"";"";"Auf den Schienen des Doppeladlers";"Dokumentation";"1. Einreichtermin";"2 x 104 (2 x 52)";"206091.94"
"Graf Filmproduktion GmbH";"Die Toten vom Bodensee";"Fernsehfonds";"RTR";"315000";"2013";"Film";"";"";"";"";"";"";"Die Toten vom Bodensee";"Film";"2. Einreichtermin";"90";"1675016.88"
"HANN Filmproduktionsgesellschaft m.b.H.";"24 Stunden Polizei - Leben auf der Autobahn (Folge 1 - 6)";"Fernsehfonds";"RTR";"32500";"2013";"Dokumentation";"";"";"";"";"";"";"24 Stunden Polizei - Leben auf der Autobahn (Folge 1 - 6)";"Dokumentation";"3. Einreichtermin";"6 x 46";"183667.38"
"Interspot Film-Gesellschaft m.b.H.";"Stonehenge";"Fernsehfonds";"RTR";"129772";"2013";"Dokumentation";"";"";"";"";"";"";"Stonehenge";"Dokumentation";"2. Einreichtermin";"2 x 60";"1713750"
"Interspot Film-Gesellschaft m.b.H.";"Ötscher - Im Reich des sanften Riesen";"Fernsehfonds";"RTR";"80000";"2013";"Dokumentation";"";"";"";"";"";"";"Ötscher - Im Reich des sanften Riesen";"Dokumentation";"2. Einreichtermin";"50";"416367"
"Interspot Film-Gesellschaft m.b.H.";"Österreich - Land der grünen Grenze";"Fernsehfonds";"RTR";"121000";"2013";"Dokumentation";"";"";"";"";"";"";"Österreich - Land der grünen Grenze";"Dokumentation";"3. Einreichtermin";"90";"557091.21"
"Kurt Mayer Film";"Engadin - Wildnis der Schweiz";"Fernsehfonds";"RTR";"70000";"2013";"Dokumentation";"";"";"";"";"";"";"Engadin - Wildnis der Schweiz";"Dokumentation";"3. Einreichtermin";"53";"355705"
"Langbein & Partner Media GmbH & Co KG";"Heilen ohne Pillen und Skalpell";"Fernsehfonds";"RTR";"18550";"2013";"Dokumentation";"";"";"";"";"";"";"Heilen ohne Pillen und Skalpell";"Dokumentation";"4. Einreichtermin";"50";"96893"
"Lotus-Film Gesellschaft m.b.H.";"Die Frau mit einem Schuh";"Fernsehfonds";"RTR";"504029.45";"2013";"Film";"";"";"";"";"";"";"Die Frau mit einem Schuh";"Film";"1. Einreichtermin";"90";"1667175.76"
"Lotus-Film Gesellschaft m.b.H.";"Blutsschwestern";"Fernsehfonds";"RTR";"400000";"2013";"Film";"";"";"";"";"";"";"Blutsschwestern";"Film";"1. Einreichtermin";"88";"1835118"
"MAKIDO Filmproduktion GmbH";"Sturm auf die Berge - 150 Jahre Alpengeschichte mit Reinhold Messner";"Fernsehfonds";"RTR";"83333.33";"2013";"Dokumentation";"";"";"";"";"";"";"Sturm auf die Berge - 150 Jahre Alpengeschichte mit Reinhold Messner";"Dokumentation";"2. Einreichtermin";"3 x 3 x 52min";"512530.82"
"MAKIDO Filmproduktion GmbH";"Diplomatische Liebschaften - Die Mätressen des Wiener Kongresses";"Fernsehfonds";"RTR";"67862.38";"2013";"Dokumentation";"";"";"";"";"";"";"Diplomatische Liebschaften - Die Mätressen des Wiener Kongresses";"Dokumentation";"2. Einreichtermin";"45 und 52";"339312.82"
"Metafilm GmbH";"Leidenschaft und Verrat: Oberst Redl - Der Jahrhundertspion";"Fernsehfonds";"RTR";"37268";"2013";"Dokumentation";"";"";"";"";"";"";"Leidenschaft und Verrat: Oberst Redl - Der Jahrhundertspion";"Dokumentation";"1. Einreichtermin";"52";"186341.2"
"Metafilm GmbH";"Der Weg in den Untergang";"Fernsehfonds";"RTR";"104500";"2013";"Dokumentation";"";"";"";"";"";"";"Der Weg in den Untergang";"Dokumentation";"3. Einreichtermin";"52";"464745"
"MONA Film Produktion GmbH";"Der Clan. Die Geschichte der Familie Wagner";"Fernsehfonds";"RTR";"500000";"2013";"Film";"";"";"";"";"";"";"Der Clan. Die Geschichte der Familie Wagner";"Film";"2. Einreichtermin";"110";"4280502"
"MR-Film Kurt Mrkwicka Gesellschaft m.b.H.";"Die Detektive";"Fernsehfonds";"RTR";"1258000";"2013";"Serie";"";"";"";"";"";"";"Die Detektive";"Serie";"1. Einreichtermin";"10 x ca. 45 Min je Folge";"6431178"
"MR-Film Kurt Mrkwicka Gesellschaft m.b.H.";"Clara Immerwahr";"Fernsehfonds";"RTR";"800000";"2013";"Film";"";"";"";"";"";"";"Clara Immerwahr";"Film";"3. Einreichtermin";"80:30";"3123464"
"NAVIGATOR FILM PRODUCTION - Verein zur Förderung und Durchführung von Filmprojekten & Co KG";"Snow Business";"Fernsehfonds";"RTR";"30000";"2013";"Dokumentation";"";"";"";"";"";"";"Snow Business";"Dokumentation";"3. Einreichtermin";"52";"310950"
"Nikolaus Geyrhalter Filmproduktion GmbH";"Reiseckers Reisen / 3. Staffel";"Fernsehfonds";"RTR";"97060";"2013";"Dokumentation";"";"";"";"";"";"";"Reiseckers Reisen / 3. Staffel";"Dokumentation";"1. Einreichtermin";"10 x 25";"323785"
"Nikolaus Geyrhalter Filmproduktion GmbH";"Die unglaubliche Reise der Familie Zid";"Fernsehfonds";"RTR";"57000";"2013";"Dokumentation";"";"";"";"";"";"";"Die unglaubliche Reise der Familie Zid";"Dokumentation";"1. Einreichtermin";"80";"286249"
"ON-MEDIA TV- und Filmproduktion GmbH";"Die Notaufnahme V";"Fernsehfonds";"RTR";"41000";"2013";"Dokumentation";"";"";"";"";"";"";"Die Notaufnahme V";"Dokumentation";"3. Einreichtermin";"6 x 50 Minuten";"217571.74"
"ON-MEDIA TV- und Filmproduktion GmbH";"Die wirklich wichtigsten Österreicher";"Fernsehfonds";"RTR";"40000";"2013";"Dokumentation";"";"";"";"";"";"";"Die wirklich wichtigsten Österreicher";"Dokumentation";"1. Einreichtermin";"6 x 50";"205923.3"
"ON-MEDIA TV- und Filmproduktion GmbH";"Pfusch am Bau VII";"Fernsehfonds";"RTR";"70000";"2013";"Dokumentation";"";"";"";"";"";"";"Pfusch am Bau VII";"Dokumentation";"2. Einreichtermin";"10 x 50";"356953.12"
"ON-MEDIA TV- und Filmproduktion GmbH";"Pfusch am Bau VI";"Fernsehfonds";"RTR";"56000";"2013";"Dokumentation";"";"";"";"";"";"";"Pfusch am Bau VI";"Dokumentation";"1. Einreichtermin";"8 x 50";"283452.57"
"OTTO PAMMER FILMPRODUKTION";"Wie wir wurden. Was wir sind. Generation Österreich  (Folge 5-6)";"Fernsehfonds";"RTR";"15000";"2013";"Dokumentation";"";"";"";"";"";"";"Wie wir wurden. Was wir sind. Generation Österreich  (Folge 5-6)";"Dokumentation";"4. Einreichtermin";"2 x 45";"76582.22"
"OTTO PAMMER FILMPRODUKTION";"Erlebnis Österreich: Die Magie der Unterwelt";"Fernsehfonds";"RTR";"8534.2";"2013";"Dokumentation";"";"";"";"";"";"";"Erlebnis Österreich: Die Magie der Unterwelt";"Dokumentation";"4. Einreichtermin";"25";"42671"
"PLAESION Film + Vision e.U.";"For My Sisters";"Fernsehfonds";"RTR";"52000";"2013";"Dokumentation";"";"";"";"";"";"";"For My Sisters";"Dokumentation";"4. Einreichtermin";"60";"271276"
"pre tv Gesellschaft für Film- und Videoproduktion m.b.H.";"Adolf Hitler - Mein Großvater?";"Fernsehfonds";"RTR";"75000";"2013";"Dokumentation";"";"";"";"";"";"";"Adolf Hitler - Mein Großvater?";"Dokumentation";"3. Einreichtermin";"52";"413856.43"
"RILK FILM e.U.";"Die Stadt - Fremdes Wien";"Fernsehfonds";"RTR";"72000";"2013";"Dokumentation";"";"";"";"";"";"";"Die Stadt - Fremdes Wien";"Dokumentation";"2. Einreichtermin";"3 x 50";"379242.85"
"Satel Film GmbH";"Soko Donau / 9. Staffel";"Fernsehfonds";"RTR";"2077000";"2013";"Serie";"";"";"";"";"";"";"Soko Donau / 9. Staffel";"Serie";"1. Einreichtermin";"16 x 43";"1.044454929E7"
"Satel Film GmbH";"Aufgetischt - 5. Staffel";"Fernsehfonds";"RTR";"152000";"2013";"Dokumentation";"";"";"";"";"";"";"Aufgetischt - 5. Staffel";"Dokumentation";"1. Einreichtermin";"9 x 45";"669922.04"
"SUPERFILM Filmproduktions GmbH";"The Team";"Fernsehfonds";"RTR";"500000";"2013";"Serie";"";"";"";"";"";"";"The Team";"Serie";"2. Einreichtermin";"8 x 56 oder 4 x 110";"1.194103504E7"
"VERMEER-FILM e.U.";"Eros, Tod und die Musik - Das Phänomen der Berührung durch Musik";"Fernsehfonds";"RTR";"20518.56";"2013";"Dokumentation";"";"";"";"";"";"";"Eros, Tod und die Musik - Das Phänomen der Berührung durch Musik";"Dokumentation";"2. Einreichtermin";"60";"120518.56""Die Presse Verlags-Gesellschaft m.b.H. & Co KG"
