receiver;fundedObject;name;payer;amount;year;fundingBasis;street;zipCode;city_de;status;amountPart1;amountPart2;broadcastName;category;deadline;broadcastLength;productionCosts
"Die Presse Verlags-Gesellschaft m.b.H. & Co KG";"Die Presse";"Pressefoerderung";"KommAustria";"941085.4";"2012";"Abschnitt III PresseFG 2004";"Hainburger Straße 33";"1030";"Wien";"abgeschlossen";"470542.7";"470542.7";"";"Besondere Förderung zur Erhaltung der regionalen Vielfalt der Tageszeitungen";"";"";""
"Kärntner Tageszeitungsges.m.b.H";"Kärntner Tageszeitung";"Pressefoerderung";"KommAustria";"795881.6";"2012";"Abschnitt III PresseFG 2004";"Karfreitstraße 24";"9020";"Klagenfurt";"abgeschlossen";"397940.8";"397940.8";"";"Besondere Förderung zur Erhaltung der regionalen Vielfalt der Tageszeitungen";"";"";""
"OÖ Media Data Vertriebs- und Verlagsges.m.b.H.";"Neues Volksblatt";"Pressefoerderung";"KommAustria";"695728.7";"2012";"Abschnitt III PresseFG 2004";"Hafenstraße 1-3";"4010";"Linz";"abgeschlossen";"347864.35";"347864.35";"";"Besondere Förderung zur Erhaltung der regionalen Vielfalt der Tageszeitungen";"";"";""
"Salzburger Volkszeitung GmbH & Co KG";"SVZ Salzburger Volkszeitung";"Pressefoerderung";"KommAustria";"726717.4";"2012";"Abschnitt III PresseFG 2004";"Schrannengasse 6";"5020";"Salzburg";"abgeschlossen";"363358.7";"363358.7";"";"Besondere Förderung zur Erhaltung der regionalen Vielfalt der Tageszeitungen";"";"";""
"Standard Verlagsgesellschaft m.b.H.";"Der Standard";"Pressefoerderung";"KommAustria";"877359.2";"2012";"Abschnitt III PresseFG 2004";"Herrengasse 19-21";"1010";"Wien";"abgeschlossen";"438679.6";"438679.6";"";"Besondere Förderung zur Erhaltung der regionalen Vielfalt der Tageszeitungen";"";"";""
"WirtschaftsBlatt Medien GmbH";"WirtschaftsBlatt";"Pressefoerderung";"KommAustria";"574247.3";"2012";"Abschnitt III PresseFG 2004";"Hainburger Straße 33";"1030";"Wien";"abgeschlossen";"287123.65";"287123.65";"";"Besondere Förderung zur Erhaltung der regionalen Vielfalt der Tageszeitungen";"";"";""
"Zeitungs- und Verlagsges.m.b.H.";"Neue Vorarlberger Tageszeitung";"Pressefoerderung";"KommAustria";"675980.4";"2012";"Abschnitt III PresseFG 2004";"Gutenbergstraße 1";"6858";"Schwarzach";"abgeschlossen";"337990.2";"337990.2";"";"Besondere Förderung zur Erhaltung der regionalen Vielfalt der Tageszeitungen";"";"";""
"fjum- forum journalismus und medien wien";"fjum - forum journalismus und medien wien";"Pressefoerderung";"KommAustria";"4793";"2012";"§ 10 Abs.2 PresseFG 2004";"Karl-Farkas-Gasse 18";"1030";"Wien";"abgeschlossen";"2396.5";"2396.5";"";"Förderung von Vereinigungen der Journalistenausbildung";"";"";""
"Friedrich Austerlitz-Institut für JournalistInnenausbildung";"Friedrich Austerlitz-Institut für JournalistInnenausbildung";"Pressefoerderung";"KommAustria";"9715";"2012";"§ 10 Abs.2 PresseFG 2004";"Löwelstraße 18";"1014";"Wien";"abgeschlossen";"4857.5";"4857.5";"";"Förderung von Vereinigungen der Journalistenausbildung";"";"";""
"Friedrich Funder Institut für Publizistik, Medienforschung und Journalistenausbildung";"Friedrich Funder Institut für Publizistik, Medienforschung und Journalistenausbildung";"Pressefoerderung";"KommAustria";"29303";"2012";"§ 10 Abs.2 PresseFG 2004";"Tivoligasse 73";"1120";"Wien";"abgeschlossen";"14651.5";"14651.5";"";"Förderung von Vereinigungen der Journalistenausbildung";"";"";""
"GESPU - Gesellschaft für Publizistik und Medienforschung";"GESPU - Gesellschaft für Publizistik und Medienforschung";"Pressefoerderung";"KommAustria";"12614";"2012";"§ 10 Abs.2 PresseFG 2004";"Alfred-Dallinger-Platz 1";"1030";"Wien";"abgeschlossen";"6307";"6307";"";"Förderung von Vereinigungen der Journalistenausbildung";"";"";""
"Katholische Medien Akademie";"Katholische Medien Akademie";"Pressefoerderung";"KommAustria";"61425";"2012";"§ 10 Abs.2 PresseFG 2004";"Schottengasse 3/7/39";"1010";"Wien";"abgeschlossen";"30712.5";"30712.5";"";"Förderung von Vereinigungen der Journalistenausbildung";"";"";""
"M-MEDIA, Verein zur Förderung interkultureller Medienarbeit";"M-MEDIA, Verein zur Förderung interkultureller Medienarbeit";"Pressefoerderung";"KommAustria";"5000";"2012";"§ 10 Abs.2 PresseFG 2004";"Franz-Josef Kai 27/1";"1010";"Wien";"abgeschlossen";"2500";"2500";"";"Förderung von Vereinigungen der Journalistenausbildung";"";"";""
"OÖ Journalistenakademie";"OÖ Journalistenakademie";"Pressefoerderung";"KommAustria";"61425";"2012";"§ 10 Abs.2 PresseFG 2004";"Puchberg 1";"4600";"Wels";"abgeschlossen";"30712.5";"30712.5";"";"Förderung von Vereinigungen der Journalistenausbildung";"";"";""
"Österreichische Medienakademie - Kuratorium für Journalistenausbildung";"Österreichische Medienakademie - Kuratorium für Journalistenausbildung";"Pressefoerderung";"KommAustria";"429975";"2012";"§ 10 Abs.2 PresseFG 2004";"Karolingerstraße 40";"5020";"Salzburg";"abgeschlossen";"214987.5";"214987.5";"";"Förderung von Vereinigungen der Journalistenausbildung";"";"";""
"Klub der Wirtschaftspublizisten";"Klub der Wirtschaftspublizisten";"Pressefoerderung";"KommAustria";"3780";"2012";"§ 11 Abs.4 PresseFG 2004";"Bauernmarkt 6/7";"1010";"Wien";"abgeschlossen";"1890";"1890";"";"Förderung von Vereinigungen, deren Hauptaufgabe die Veranstaltung oder Durchführung von Pressekonferenzen ist";"";"";""
"Oberösterreichischer Presseclub";"Oberösterreichischer Presseclub";"Pressefoerderung";"KommAustria";"8505";"2012";"§ 11 Abs.4 PresseFG 2004";"Landeskulturzentrum Ursulinenhof, Landstraße 31";"4020";"Linz";"abgeschlossen";"4252.5";"4252.5";"";"Förderung von Vereinigungen, deren Hauptaufgabe die Veranstaltung oder Durchführung von Pressekonferenzen ist";"";"";""
"Presseclub Concordia";"Presseclub Concordia";"Pressefoerderung";"KommAustria";"23625";"2012";"§ 11 Abs.4 PresseFG 2004";"Schmerlingplatz 7 Postfach 27";"1016";"Wien";"abgeschlossen";"11812.5";"11812.5";"";"Förderung von Vereinigungen, deren Hauptaufgabe die Veranstaltung oder Durchführung von Pressekonferenzen ist";"";"";""
"Steirischer Presseclub";"Steirischer Presseclub";"Pressefoerderung";"KommAustria";"7087.5";"2012";"§ 11 Abs.4 PresseFG 2004";"Bürgergasse 2";"8010";"Graz";"abgeschlossen";"3543.75";"3543.75";"";"Förderung von Vereinigungen, deren Hauptaufgabe die Veranstaltung oder Durchführung von Pressekonferenzen ist";"";"";""
"Verband der Agrarjournalisten und -publizisten in Österreich (VAÖ)";"Verband der Agrarjournalisten und -publizisten in Österreich (VAÖ)";"Pressefoerderung";"KommAustria";"945";"2012";"§ 11 Abs.4 PresseFG 2004";"Schauflergasse 6";"1014";"Wien";"abgeschlossen";"472.5";"472.5";"";"Förderung von Vereinigungen, deren Hauptaufgabe die Veranstaltung oder Durchführung von Pressekonferenzen ist";"";"";""
"Verband der Auslandspresse Wien";"Verband der Auslandspresse Wien";"Pressefoerderung";"KommAustria";"3307.5";"2012";"§ 11 Abs.4 PresseFG 2004";"Bartensteingasse 13/12";"1010";"Wien";"abgeschlossen";"1653.75";"1653.75";"";"Förderung von Vereinigungen, deren Hauptaufgabe die Veranstaltung oder Durchführung von Pressekonferenzen ist";"";"";""
"Die Presse Verlags-Gesellschaft m.b.H. & Co KG";"Die Presse";"Pressefoerderung";"KommAustria";"20000";"2012";"§ 11 Abs.2 Z 2 PresseFG 2004";"Hainburger Straße 33";"1030";"Wien";"abgeschlossen";"10000";"10000";"";"Refundierung für die Gratisverteilung an Schulen - Tageszeitungen";"";"";""
"Eugen Ruß, Vbg. Zeitungsverlag u. Druckerei GmbH";"Vorarlberger Nachrichten";"Pressefoerderung";"KommAustria";"8127";"2012";"§ 11 Abs.2 Z 2 PresseFG 2004";"Gutenbergstr. 1";"6858";"Schwarzach";"abgeschlossen";"4063.5";"4063.5";"";"Refundierung für die Gratisverteilung an Schulen - Tageszeitungen";"";"";""
"Kleine Zeitung GmbH & Co KG";"Kleine Zeitung Steiermark und Kärnten";"Pressefoerderung";"KommAustria";"10295";"2012";"§ 11 Abs.2 Z 2 PresseFG 2004";"Schönaugasse 64";"8010";"Graz";"abgeschlossen";"5147.5";"5147.5";"";"Refundierung für die Gratisverteilung an Schulen - Tageszeitungen";"";"";""
"Kärntner Tageszeitungsges.m.b.H";"Kärntner Tageszeitung";"Pressefoerderung";"KommAustria";"458";"2012";"§ 11 Abs.2 Z 2 PresseFG 2004";"Karfreitstraße 24";"9020";"Klagenfurt";"abgeschlossen";"229";"229";"";"Refundierung für die Gratisverteilung an Schulen - Tageszeitungen";"";"";""
"Mediaprint Zeitungs- und Zeitschriftenverlag Ges.m.b.H & Co KG";"Neue Kronenzeitung";"Pressefoerderung";"KommAustria";"10000";"2012";"§ 11 Abs.2 Z 2 PresseFG 2004";"Muthgasse 2";"1190";"Wien";"abgeschlossen";"5000";"5000";"";"Refundierung für die Gratisverteilung an Schulen - Tageszeitungen";"";"";""
"Mediaprint Zeitungs- und Zeitschriftenverlag Ges.m.b.H & Co KG";"Kurier";"Pressefoerderung";"KommAustria";"10036";"2012";"§ 11 Abs.2 Z 2 PresseFG 2004";"Muthgasse 2";"1190";"Wien";"abgeschlossen";"5018";"5018";"";"Refundierung für die Gratisverteilung an Schulen - Tageszeitungen";"";"";""
"OÖ Media Data Vertriebs- und Verlagsges.m.b.H.";"Neues Volksblatt";"Pressefoerderung";"KommAustria";"1098";"2012";"§ 11 Abs.2 Z 2 PresseFG 2004";"Hafenstraße 1-3";"4010";"Linz";"abgeschlossen";"549";"549";"";"Refundierung für die Gratisverteilung an Schulen - Tageszeitungen";"";"";""
"OÖN Redaktion GmbH & CO KG";"OÖ Nachrichten";"Pressefoerderung";"KommAustria";"10594";"2012";"§ 11 Abs.2 Z 2 PresseFG 2004";"Promenade 23";"4020";"Linz";"abgeschlossen";"5297";"5297";"";"Refundierung für die Gratisverteilung an Schulen - Tageszeitungen";"";"";""
"Salzburger Nachrichten Verlagsges.m.b.H. & Co KG";"Salzburger Nachrichten";"Pressefoerderung";"KommAustria";"12999";"2012";"§ 11 Abs.2 Z 2 PresseFG 2004";"Karolingerstraße 40";"5021";"Salzburg";"abgeschlossen";"6499.5";"6499.5";"";"Refundierung für die Gratisverteilung an Schulen - Tageszeitungen";"";"";""
"Salzburger Volkszeitung GmbH & Co KG";"SVZ Salzburger Volkszeitung";"Pressefoerderung";"KommAustria";"913";"2012";"§ 11 Abs.2 Z 2 PresseFG 2004";"Schrannengasse 6";"5020";"Salzburg";"abgeschlossen";"456.5";"456.5";"";"Refundierung für die Gratisverteilung an Schulen - Tageszeitungen";"";"";""
"Schlüsselverlag J.S. Moser GmbH.";"Tiroler Tageszeitung";"Pressefoerderung";"KommAustria";"13989";"2012";"§ 11 Abs.2 Z 2 PresseFG 2004";"Ing.-Etzel-Straße 30";"6020";"Innsbruck";"abgeschlossen";"6994.5";"6994.5";"";"Refundierung für die Gratisverteilung an Schulen - Tageszeitungen";"";"";""
"Standard Verlagsgesellschaft m.b.H.";"Der Standard";"Pressefoerderung";"KommAustria";"18357";"2012";"§ 11 Abs.2 Z 2 PresseFG 2004";"Herrengasse 19-21";"1010";"Wien";"abgeschlossen";"9178.5";"9178.5";"";"Refundierung für die Gratisverteilung an Schulen - Tageszeitungen";"";"";""
"WirtschaftsBlatt Medien GmbH";"WirtschaftsBlatt";"Pressefoerderung";"KommAustria";"2587";"2012";"§ 11 Abs.2 Z 2 PresseFG 2004";"Hainburger Straße 33";"1030";"Wien";"abgeschlossen";"1293.5";"1293.5";"";"Refundierung für die Gratisverteilung an Schulen - Tageszeitungen";"";"";""
"Zeitungs- und Verlagsges.m.b.H.";"Neue Vorarlberger Tageszeitung";"Pressefoerderung";"KommAustria";"380";"2012";"§ 11 Abs.2 Z 2 PresseFG 2004";"Gutenbergstraße 1";"6858";"Schwarzach";"abgeschlossen";"190";"190";"";"Refundierung für die Gratisverteilung an Schulen - Tageszeitungen";"";"";""
"BVZ Burgenländische Volkszeitung GmbH";"BVZ";"Pressefoerderung";"KommAustria";"319";"2012";"§ 11 Abs.2 Z 2 PresseFG 2004";"Hauptstraße 52a";"7000";"Eisenstadt";"abgeschlossen";"159.5";"159.5";"";"Refundierung für die Gratisverteilung an Schulen - Wochenzeitungen";"";"";""
"Die Furche ZeitschriftenbetriebsgesmbH & Co KG";"Die Furche";"Pressefoerderung";"KommAustria";"14497";"2012";"§ 11 Abs.2 Z 2 PresseFG 2004";"Lobkowitzplatz 1";"1010";"Wien";"abgeschlossen";"7248.5";"7248.5";"";"Refundierung für die Gratisverteilung an Schulen - Wochenzeitungen";"";"";""
"Diözese Innsbruck";"Tiroler Sonntag - Kirchenzeitung der Diözese Innsbruck";"Pressefoerderung";"KommAustria";"179";"2012";"§ 11 Abs.2 Z 2 PresseFG 2004";"Riedgasse 9";"6020";"Innsbruck";"abgeschlossen";"89.5";"89.5";"";"Refundierung für die Gratisverteilung an Schulen - Wochenzeitungen";"";"";""
"Falter Zeitschriftengesellschaft m.b.H.";"Falter";"Pressefoerderung";"KommAustria";"1134";"2012";"§ 11 Abs.2 Z 2 PresseFG 2004";"Marc-Aurel-Straße 9";"1010";"Wien";"abgeschlossen";"567";"567";"";"Refundierung für die Gratisverteilung an Schulen - Wochenzeitungen";"";"";""
"Kirchenzeitung Diözese Linz";"Kirchenzeitung Diözese Linz";"Pressefoerderung";"KommAustria";"610";"2012";"§ 11 Abs.2 Z 2 PresseFG 2004";"Kapuzinerstraße 84";"4020";"Linz";"abgeschlossen";"305";"305";"";"Refundierung für die Gratisverteilung an Schulen - Wochenzeitungen";"";"";""
"Kroatischer Presseverein";"Hrvatske Novine";"Pressefoerderung";"KommAustria";"798";"2012";"§ 11 Abs.2 Z 2 PresseFG 2004";"Hotterweg 54";"7000";"Eisenstadt";"abgeschlossen";"399";"399";"";"Refundierung für die Gratisverteilung an Schulen - Wochenzeitungen";"";"";""
"Murtaler Zeitung GmbH";"Murtaler Zeitung";"Pressefoerderung";"KommAustria";"32";"2012";"§ 11 Abs.2 Z 2 PresseFG 2004";"Murtaler Platz 1; c/o fides Verrechnungs- & DienstleistungsGmbH, Schönaugasse 64, 8010 Graz";"8750";"Judenburg";"abgeschlossen";"16";"16";"";"Refundierung für die Gratisverteilung an Schulen - Wochenzeitungen";"";"";""
"Niederösterreichisches Pressehaus Druck- und Verlagsges.m.b.H.";"NÖN";"Pressefoerderung";"KommAustria";"2062";"2012";"§ 11 Abs.2 Z 2 PresseFG 2004";"Gutenbergstraße 12";"3100";"St. Pölten";"abgeschlossen";"1031";"1031";"";"Refundierung für die Gratisverteilung an Schulen - Wochenzeitungen";"";"";""
"Osttiroler Bote Medienunternehmen Ges.m.b.H.";"Osttiroler Bote";"Pressefoerderung";"KommAustria";"65";"2012";"§ 11 Abs.2 Z 2 PresseFG 2004";"Schweizergasse 26";"9900";"Lienz, Osttirol";"abgeschlossen";"32.5";"32.5";"";"Refundierung für die Gratisverteilung an Schulen - Wochenzeitungen";"";"";""
"Verlagsgruppe NEWS Gesellschaft m.b.H.";"NEWS";"Pressefoerderung";"KommAustria";"4089";"2012";"§ 11 Abs.2 Z 2 PresseFG 2004";"Taborstrasse 1-3";"1020";"Wien";"abgeschlossen";"2044.5";"2044.5";"";"Refundierung für die Gratisverteilung an Schulen - Wochenzeitungen";"";"";""
"Verlagsgruppe NEWS Gesellschaft m.b.H.";"PROFIL";"Pressefoerderung";"KommAustria";"6609";"2012";"§ 11 Abs.2 Z 2 PresseFG 2004";"Taborstrasse 1-3";"1020";"Wien";"abgeschlossen";"3304.5";"3304.5";"";"Refundierung für die Gratisverteilung an Schulen - Wochenzeitungen";"";"";""
"Verlagsgruppe NEWS Gesellschaft m.b.H.";"FORMAT";"Pressefoerderung";"KommAustria";"2045";"2012";"§ 11 Abs.2 Z 2 PresseFG 2004";"Taborstrasse 1-3";"1020";"Wien";"abgeschlossen";"1022.5";"1022.5";"";"Refundierung für die Gratisverteilung an Schulen - Wochenzeitungen";"";"";""
"Die Presse Verlags-Gesellschaft m.b.H. & Co KG";"Die Presse";"Pressefoerderung";"KommAustria";"130390.9";"2012";"Abschnitt II PresseFG 2004";"Hainburger Straße 33";"1030";"Wien";"abgeschlossen";"65195.45";"65195.45";"";"Vertriebsförderung von Tageszeitungen";"";"";""
"Eugen Ruß, Vbg. Zeitungsverlag u. Druckerei GmbH";"Vorarlberger Nachrichten";"Pressefoerderung";"KommAustria";"162988.6";"2012";"Abschnitt II PresseFG 2004";"Gutenbergstr. 1";"6858";"Schwarzach";"abgeschlossen";"81494.3";"81494.3";"";"Vertriebsförderung von Tageszeitungen";"";"";""
"Kleine Zeitung GmbH & Co KG";"Kleine Zeitung Steiermark und Kärnten";"Pressefoerderung";"KommAustria";"162988.6";"2012";"Abschnitt II PresseFG 2004";"Schönaugasse 64";"8010";"Graz";"abgeschlossen";"81494.3";"81494.3";"";"Vertriebsförderung von Tageszeitungen";"";"";""
"Kärntner Tageszeitungsges.m.b.H";"Kärntner Tageszeitung";"Pressefoerderung";"KommAustria";"162988.6";"2012";"Abschnitt II PresseFG 2004";"Karfreitstraße 24";"9020";"Klagenfurt";"abgeschlossen";"81494.3";"81494.3";"";"Vertriebsförderung von Tageszeitungen";"";"";""
"Mediaprint Zeitungs- und Zeitschriftenverlag Ges.m.b.H & Co KG";"Kurier";"Pressefoerderung";"KommAustria";"130390.9";"2012";"Abschnitt II PresseFG 2004";"Muthgasse 2";"1190";"Wien";"abgeschlossen";"65195.45";"65195.45";"";"Vertriebsförderung von Tageszeitungen";"";"";""
"Mediaprint Zeitungs- und Zeitschriftenverlag Ges.m.b.H & Co KG";"Neue Kronenzeitung";"Pressefoerderung";"KommAustria";"162988.6";"2012";"Abschnitt II PresseFG 2004";"Muthgasse 2";"1190";"Wien";"abgeschlossen";"81494.3";"81494.3";"";"Vertriebsförderung von Tageszeitungen";"";"";""
"OÖ Media Data Vertriebs- und Verlagsges.m.b.H.";"Neues Volksblatt";"Pressefoerderung";"KommAustria";"162988.6";"2012";"Abschnitt II PresseFG 2004";"Hafenstraße 1-3";"4010";"Linz";"abgeschlossen";"81494.3";"81494.3";"";"Vertriebsförderung von Tageszeitungen";"";"";""
"OÖN Redaktion GmbH & CO KG";"OÖ Nachrichten";"Pressefoerderung";"KommAustria";"162988.6";"2012";"Abschnitt II PresseFG 2004";"Promenade 23";"4020";"Linz";"abgeschlossen";"81494.3";"81494.3";"";"Vertriebsförderung von Tageszeitungen";"";"";""
"Salzburger Nachrichten Verlagsges.m.b.H. & Co KG";"Salzburger Nachrichten";"Pressefoerderung";"KommAustria";"162988.6";"2012";"Abschnitt II PresseFG 2004";"Karolingerstraße 40";"5020";"Salzburg";"abgeschlossen";"81494.3";"81494.3";"";"Vertriebsförderung von Tageszeitungen";"";"";""
"Salzburger Volkszeitung GmbH & Co KG";"SVZ Salzburger Volkszeitung";"Pressefoerderung";"KommAustria";"162988.6";"2012";"Abschnitt II PresseFG 2004";"Schrannengasse 6";"5020";"Salzburg";"abgeschlossen";"81494.3";"81494.3";"";"Vertriebsförderung von Tageszeitungen";"";"";""
"Schlüsselverlag J. S. Moser GmbH.";"Tiroler Tageszeitung";"Pressefoerderung";"KommAustria";"162988.6";"2012";"Abschnitt II PresseFG 2004";"Ing.-Etzel-Straße 30";"6020";"Innsbruck";"abgeschlossen";"81494.3";"81494.3";"";"Vertriebsförderung von Tageszeitungen";"";"";""
"Standard Verlagsgesellschaft m.b.H.";"Der Standard";"Pressefoerderung";"KommAustria";"162988.6";"2012";"Abschnitt II PresseFG 2004";"Herrengasse 19-21";"1010";"Wien";"abgeschlossen";"81494.3";"81494.3";"";"Vertriebsförderung von Tageszeitungen";"";"";""
"WirtschaftsBlatt Medien GmbH";"WirtschaftsBlatt";"Pressefoerderung";"KommAustria";"97793.2";"2012";"Abschnitt II PresseFG 2004";"Hainburger Straße 33";"1030";"Wien";"abgeschlossen";"48896.6";"48896.6";"";"Vertriebsförderung von Tageszeitungen";"";"";""
"Zeitungs- und Verlagsges.m.b.H.";"Neue Vorarlberger Tageszeitung";"Pressefoerderung";"KommAustria";"130390.9";"2012";"Abschnitt II PresseFG 2004";"Gutenbergstraße 1";"6858";"Schwarzach";"abgeschlossen";"65195.45";"65195.45";"";"Vertriebsförderung von Tageszeitungen";"";"";""
"A.B.C. Werbeagentur Ges.m.b.H.";"Kärntner Nachrichten";"Pressefoerderung";"KommAustria";"47091.3";"2012";"Abschnitt II PresseFG 2004";"Kohldorferstraße 98/1.Stock";"9020";"Klagenfurt";"abgeschlossen";"23545.65";"23545.65";"";"Vertriebsförderung von Wochenzeitungen";"";"";""
"Agrar Media Verlagsgesellschaft mbH.";"Österreichische BauernZeitung (Bauernbündler)";"Pressefoerderung";"KommAustria";"83535.8";"2012";"Abschnitt II PresseFG 2004";"Schauflergasse 6";"1010";"Wien";"abgeschlossen";"41767.9";"41767.9";"";"Vertriebsförderung von Wochenzeitungen";"";"";""
"Bischöfliches Ordinariat, Diözese Graz-Seckau";"Sonntagsblatt für Steiermark";"Pressefoerderung";"KommAustria";"83535.8";"2012";"Abschnitt II PresseFG 2004";"Bischofsplatz 4";"8010";"Graz";"abgeschlossen";"41767.9";"41767.9";"";"Vertriebsförderung von Wochenzeitungen";"";"";""
"Bischöfliches Seelsorgeamt";"Nedelja  Slowenische Kirchenzeitung der Diözese Gurk";"Pressefoerderung";"KommAustria";"15516.9";"2012";"Abschnitt II PresseFG 2004";"Viktringer Ring 26";"9020";"Klagenfurt";"abgeschlossen";"7758.45";"7758.45";"";"Vertriebsförderung von Wochenzeitungen";"";"";""
"BVZ Burgenländische Volkszeitung GmbH";"BVZ";"Pressefoerderung";"KommAustria";"48549.1";"2012";"Abschnitt II PresseFG 2004";"Hauptstraße 52a";"7000";"Eisenstadt";"abgeschlossen";"24274.55";"24274.55";"";"Vertriebsförderung von Wochenzeitungen";"";"";""
"Die Furche ZeitschriftenbetriebsgesmbH & Co KG";"Die Furche";"Pressefoerderung";"KommAustria";"79359";"2012";"Abschnitt II PresseFG 2004";"Lobkowitzplatz 1";"1010";"Wien";"abgeschlossen";"39679.5";"39679.5";"";"Vertriebsförderung von Wochenzeitungen";"";"";""
"Die ganze Woche Ges.m.b.H.";"Die ganze Woche";"Pressefoerderung";"KommAustria";"83535.8";"2012";"Abschnitt II PresseFG 2004";"Heiligenstädter Straße 121";"1190";"Wien";"abgeschlossen";"41767.9";"41767.9";"";"Vertriebsförderung von Wochenzeitungen";"";"";""
"Diözese Eisenstadt - Bischöfliches Ordinariat Generalvikar Mag. Georg Lang";"martinus - Kirchenzeitung der Diözese Eisenstadt (vormals: Eisenstädter Kirchenzeitung)";"Pressefoerderung";"KommAustria";"76574.5";"2012";"Abschnitt II PresseFG 2004";"St. Rochusstraße 21";"7000";"Eisenstadt";"abgeschlossen";"38287.25";"38287.25";"";"Vertriebsförderung von Wochenzeitungen";"";"";""
"Diözese Eisenstadt, Kroatische Sektion des Pastoralamtes";"GLASNIK  Crikvene novine Zeljezanske biskupije";"Pressefoerderung";"KommAustria";"7043.2";"2012";"Abschnitt II PresseFG 2004";"St. Rochusstraße 21";"7000";"Eisenstadt";"abgeschlossen";"3521.6";"3521.6";"";"Vertriebsförderung von Wochenzeitungen";"";"";""
"Diözese Feldkirch";"KirchenBlatt";"Pressefoerderung";"KommAustria";"66214.4";"2012";"Abschnitt II PresseFG 2004";"Bahnhofstraße 13";"6801";"Feldkirch";"abgeschlossen";"33107.2";"33107.2";"";"Vertriebsförderung von Wochenzeitungen";"";"";""
"Diözese Innsbruck Bischöfliches Ordinariat";"Tiroler Sonntag - Kirchenzeitung der Diözese Innsbruck";"Pressefoerderung";"KommAustria";"79359";"2012";"Abschnitt II PresseFG 2004";"Riedgasse 9";"6020";"Innsbruck";"abgeschlossen";"39679.5";"39679.5";"";"Vertriebsförderung von Wochenzeitungen";"";"";""
"Falter Zeitschriftengesellschaft m.b.H.";"Falter";"Pressefoerderung";"KommAustria";"75073";"2012";"Abschnitt II PresseFG 2004";"Marc-Aurel-Straße 9";"1010";"Wien";"abgeschlossen";"37536.5";"37536.5";"";"Vertriebsförderung von Wochenzeitungen";"";"";""
"Freiheitliche Partei Österreichs (FPÖ)";"Neue Freie Zeitung";"Pressefoerderung";"KommAustria";"46067.6";"2012";"Abschnitt II PresseFG 2004";"Friedrich Schmidt Platz 4/3A";"1080";"Wien";"abgeschlossen";"23033.8";"23033.8";"";"Vertriebsförderung von Wochenzeitungen";"";"";""
"Kirchenblatt für die Diözese St. Pölten";"Kirche bunt  St. Pöltner Kirchenzeitung";"Pressefoerderung";"KommAustria";"68139";"2012";"Abschnitt II PresseFG 2004";"Gutenbergstr. 12";"3100";"St. Pölten";"abgeschlossen";"34069.5";"34069.5";"";"Vertriebsförderung von Wochenzeitungen";"";"";""
"Kirchenzeitung Diözese Linz";"Kirchenzeitung Diözese Linz";"Pressefoerderung";"KommAustria";"83535.8";"2012";"Abschnitt II PresseFG 2004";"Kapuzinerstraße 84";"4020";"Linz";"abgeschlossen";"41767.9";"41767.9";"";"Vertriebsförderung von Wochenzeitungen";"";"";""
"Kitzbüheler Anzeiger Ges.m.b.H.";"Kitzbüheler Anzeiger";"Pressefoerderung";"KommAustria";"8635.6";"2012";"Abschnitt II PresseFG 2004";"Im Gries 23";"6370";"Kitzbühel";"abgeschlossen";"4317.8";"4317.8";"";"Vertriebsförderung von Wochenzeitungen";"";"";""
"Kroatischer Presseverein";"Hrvatske Novine";"Pressefoerderung";"KommAustria";"9827.7";"2012";"Abschnitt II PresseFG 2004";"Hotterweg 54";"7000";"Eisenstadt";"abgeschlossen";"4913.85";"4913.85";"";"Vertriebsförderung von Wochenzeitungen";"";"";""
"Mediengruppe ÖSTERREICH GmbH";"Madonna mit ÖSTERREICH";"Pressefoerderung";"KommAustria";"0";"2012";"Abschnitt II PresseFG 2004";"Friedrichstraße 10";"1010";"Wien";"abgelehnt";"0";"0";"";"Vertriebsförderung von Wochenzeitungen";"";"";""
"Murtaler Zeitung GmbH";"Murtaler Zeitung";"Pressefoerderung";"KommAustria";"6908.5";"2012";"Abschnitt II PresseFG 2004";"Murtaler Platz 1; c/o fides Verrechnungs- & DienstleistungsGmbH, Schönaugasse 64, 8010 Graz";"8750";"Judenburg";"abgeschlossen";"3454.25";"3454.25";"";"Vertriebsförderung von Wochenzeitungen";"";"";""
"Neues Land Medien GesmbH";"Neues Land";"Pressefoerderung";"KommAustria";"83535.8";"2012";"Abschnitt II PresseFG 2004";"Reitschulgasse 3";"8010";"Graz";"abgeschlossen";"41767.9";"41767.9";"";"Vertriebsförderung von Wochenzeitungen";"";"";""
"Niederösterreichisches Pressehaus Druck- und Verlagsges.m.b.H.";"NÖN";"Pressefoerderung";"KommAustria";"85173.8";"2012";"Abschnitt II PresseFG 2004";"Gutenbergstraße 12";"3100";"St. Pölten";"abgeschlossen";"42586.9";"42586.9";"";"Vertriebsförderung von Wochenzeitungen";"";"";""
"Ordinariat der Erzdiözese Salzburg";"Rupertusblatt - Wochenzeitung der Erzdiözese Salzburg";"Pressefoerderung";"KommAustria";"70227.4";"2012";"Abschnitt II PresseFG 2004";"Kapitelplatz 2";"5020";"Salzburg";"abgeschlossen";"35113.7";"35113.7";"";"Vertriebsförderung von Wochenzeitungen";"";"";""
"Osttiroler Bote Medienunternehmen Ges.m.b.H.";"Osttiroler Bote";"Pressefoerderung";"KommAustria";"8635.6";"2012";"Abschnitt II PresseFG 2004";"Schweizergasse 26";"9900";"Lienz, Osttirol";"abgeschlossen";"4317.8";"4317.8";"";"Vertriebsförderung von Wochenzeitungen";"";"";""
"Salzburger Woche Verlags GesmbH";"Salzburger Woche";"Pressefoerderung";"KommAustria";"83535.8";"2012";"Abschnitt II PresseFG 2004";"Ing. Ludwig-Pech-Str. 1";"5600";"St. Johann im Pongau";"abgeschlossen";"41767.9";"41767.9";"";"Vertriebsförderung von Wochenzeitungen";"";"";""
"Seelsorgeamt der Diözese Gurk";"Der Sonntag - Kärntner Kirchenzeitung";"Pressefoerderung";"KommAustria";"48115";"2012";"Abschnitt II PresseFG 2004";"Tarviser Straße 30";"9020";"Klagenfurt";"abgeschlossen";"24057.5";"24057.5";"";"Vertriebsförderung von Wochenzeitungen";"";"";""
"Slomedia GmbH";"NOVICE";"Pressefoerderung";"KommAustria";"28664.3";"2012";"Abschnitt II PresseFG 2004";"Tarviser Straße 16";"9020";"Klagenfurt";"abgeschlossen";"14332.15";"14332.15";"";"Vertriebsförderung von Wochenzeitungen";"";"";""
"Sportzeitung Verlags-GmbH";"Sportzeitung";"Pressefoerderung";"KommAustria";"22624.3";"2012";"Abschnitt II PresseFG 2004";"Linke Wienzeile 40/22";"1060";"Wien";"abgeschlossen";"11312.15";"11312.15";"";"Vertriebsförderung von Wochenzeitungen";"";"";""
"Styria Multi Media Men GmbH & Co KG";"Sportwoche";"Pressefoerderung";"KommAustria";"23807.7";"2012";"Abschnitt II PresseFG 2004";"Geiselbergstraße 15";"1110";"Wien";"abgeschlossen";"11903.85";"11903.85";"";"Vertriebsförderung von Wochenzeitungen";"";"";""
"Verlag Rudolf M. Rohrer";"BadenerZeitung";"Pressefoerderung";"KommAustria";"8635.6";"2012";"Abschnitt II PresseFG 2004";"Wassergasse 1";"2500";"Baden bei Wien";"abgeschlossen";"4317.8";"4317.8";"";"Vertriebsförderung von Wochenzeitungen";"";"";""
"Verlagsgruppe NEWS Gesellschaft m.b.H.";"Format";"Pressefoerderung";"KommAustria";"33414.3";"2012";"Abschnitt II PresseFG 2004";"Taborstrasse 1-3";"1020";"Wien";"abgeschlossen";"16707.15";"16707.15";"";"Vertriebsförderung von Wochenzeitungen";"";"";""
"Verlagsgruppe NEWS Gesellschaft m.b.H.";"tv media";"Pressefoerderung";"KommAustria";"85173.8";"2012";"Abschnitt II PresseFG 2004";"Taborstrasse 1-3";"1020";"Wien";"abgeschlossen";"42586.9";"42586.9";"";"Vertriebsförderung von Wochenzeitungen";"";"";""
"Verlagsgruppe NEWS Gesellschaft m.b.H.";"Profil";"Pressefoerderung";"KommAustria";"50121.5";"2012";"Abschnitt II PresseFG 2004";"Taborstrasse 1-3";"1020";"Wien";"abgeschlossen";"25060.75";"25060.75";"";"Vertriebsförderung von Wochenzeitungen";"";"";""
"Verlagsgruppe NEWS Gesellschaft m.b.H.";"NEWS";"Pressefoerderung";"KommAustria";"66828.7";"2012";"Abschnitt II PresseFG 2004";"Taborstrasse 1-3";"1020";"Wien";"abgeschlossen";"33414.35";"33414.35";"";"Vertriebsförderung von Wochenzeitungen";"";"";""
"W 3 Verlagsges.m.b.H.";"Zur Zeit - Die Wochenzeitung für Österreich";"Pressefoerderung";"KommAustria";"52742";"2012";"Abschnitt II PresseFG 2004";"Engelsberggasse 4";"1030";"Wien";"abgeschlossen";"26371";"26371";"";"Vertriebsförderung von Wochenzeitungen";"";"";""
"Wallig Ennstaler Druckerei und Verlag GmbH";"Der Ennstaler";"Pressefoerderung";"KommAustria";"8635.6";"2012";"Abschnitt II PresseFG 2004";"Mitterbergstraße 36";"8962";"Gröbming";"abgeschlossen";"4317.8";"4317.8";"";"Vertriebsförderung von Wochenzeitungen";"";"";""
"Wiener Dom-Verlag Ges.m.b.H.";"Der Sonntag";"Pressefoerderung";"KommAustria";"76574.5";"2012";"Abschnitt II PresseFG 2004";"Stephansplatz 4/6/DG";"1010";"Wien";"abgeschlossen";"38287.25";"38287.25";"";"Vertriebsförderung von Wochenzeitungen";"";"";""
"Verein zur Förderung der Nutzung von Zeitungen in der Schule";"Verein Zeitung in der Schule";"Pressefoerderung";"KommAustria";"219144";"2012";"§ 11 Abs.2 Z 1 PresseFG 2004";"Wipplingerstraße 15";"1010";"Wien";"abgeschlossen";"109572";"109572";"";"Zuschuss an Vereinigungen zur Leseförderungen";"";"";""
"Die Presse Verlags-Gesellschaft m.b.H. & Co KG";"Die Presse";"Pressefoerderung";"KommAustria";"40000";"2012";"§ 11 Abs.1 PresseFG 2004";"Hainburger Straße 33";"1030";"Wien";"abgeschlossen";"20000";"20000";"";"Zuschuss zu den Kosten angestellter Auslandskorrespondenten";"";"";""
"Kleine Zeitung GmbH & Co KG";"Kleine Zeitung Steiermark und Kärnten";"Pressefoerderung";"KommAustria";"40000";"2012";"§ 11 Abs.1 PresseFG 2004";"Schönaugasse 64";"8010";"Graz";"abgeschlossen";"20000";"20000";"";"Zuschuss zu den Kosten angestellter Auslandskorrespondenten";"";"";""
"Mediaprint Zeitungs- und Zeitschriftenverlag Ges.m.b.H & Co KG";"Kurier";"Pressefoerderung";"KommAustria";"40000";"2012";"§ 11 Abs.1 PresseFG 2004";"Muthgasse 2";"1190";"Wien";"abgeschlossen";"20000";"20000";"";"Zuschuss zu den Kosten angestellter Auslandskorrespondenten";"";"";""
"Salzburger Nachrichten Verlagsges.m.b.H. & Co KG";"Salzburger Nachrichten";"Pressefoerderung";"KommAustria";"40000";"2012";"§ 11 Abs.1 PresseFG 2004";"Karolingerstraße 40";"5020";"Salzburg";"abgeschlossen";"20000";"20000";"";"Zuschuss zu den Kosten angestellter Auslandskorrespondenten";"";"";""
"Salzburger Volkszeitung GmbH & Co KG";"SVZ Salzburger Volkszeitung";"Pressefoerderung";"KommAustria";"4188";"2012";"§ 11 Abs.1 PresseFG 2004";"Schrannengasse 6";"5020";"Salzburg";"abgeschlossen";"2094";"2094";"";"Zuschuss zu den Kosten angestellter Auslandskorrespondenten";"";"";""
"Standard Verlagsgesellschaft m.b.H.";"Der Standard";"Pressefoerderung";"KommAustria";"40000";"2012";"§ 11 Abs.1 PresseFG 2004";"Herrengasse 19-21";"1010";"Wien";"abgeschlossen";"20000";"20000";"";"Zuschuss zu den Kosten angestellter Auslandskorrespondenten";"";"";""
"WirtschaftsBlatt Medien GmbH";"WirtschaftsBlatt";"Pressefoerderung";"KommAustria";"40000";"2012";"§ 11 Abs.1 PresseFG 2004";"Hainburger Straße 33";"1030";"Wien";"abgeschlossen";"20000";"20000";"";"Zuschuss zu den Kosten angestellter Auslandskorrespondenten";"";"";""
"Die Presse Verlags-Gesellschaft m.b.H. & Co KG";"Die Presse";"Pressefoerderung";"KommAustria";"20000";"2012";"§ 10 Abs.1 PresseFG 2004";"Hainburger Straße 33";"1030";"Wien";"abgeschlossen";"10000";"10000";"";"Zuschuss zu den Kosten der redaktionsinternen Ausbildung von Nachwuchsjournalisten - Tageszeitungen";"";"";""
"Eugen Ruß, Vbg. Zeitungsverlag u. Druckerei GmbH";"Vorarlberger Nachrichten";"Pressefoerderung";"KommAustria";"3500";"2012";"§ 10 Abs.1 PresseFG 2004";"Gutenbergstr. 1";"6858";"Schwarzach";"abgeschlossen";"1750";"1750";"";"Zuschuss zu den Kosten der redaktionsinternen Ausbildung von Nachwuchsjournalisten - Tageszeitungen";"";"";""
"Kleine Zeitung GmbH & Co KG";"Kleine Zeitung Steiermark und Kärnten";"Pressefoerderung";"KommAustria";"20000";"2012";"§ 10 Abs.1 PresseFG 2004";"Schönaugasse 64";"8010";"Graz";"abgeschlossen";"10000";"10000";"";"Zuschuss zu den Kosten der redaktionsinternen Ausbildung von Nachwuchsjournalisten - Tageszeitungen";"";"";""
"Kärntner Tageszeitungsges.m.b.H";"Kärntner Tageszeitung";"Pressefoerderung";"KommAustria";"11396";"2012";"§ 10 Abs.1 PresseFG 2004";"Karfreitstraße 24";"9020";"Klagenfurt";"abgeschlossen";"5698";"5698";"";"Zuschuss zu den Kosten der redaktionsinternen Ausbildung von Nachwuchsjournalisten - Tageszeitungen";"";"";""
"Mediaprint Zeitungs- und Zeitschriftenverlag Ges.m.b.H & Co KG";"Kurier";"Pressefoerderung";"KommAustria";"20000";"2012";"§ 10 Abs.1 PresseFG 2004";"Muthgasse 2";"1190";"Wien";"abgeschlossen";"10000";"10000";"";"Zuschuss zu den Kosten der redaktionsinternen Ausbildung von Nachwuchsjournalisten - Tageszeitungen";"";"";""
"Mediaprint Zeitungs- und Zeitschriftenverlag Ges.m.b.H & Co KG";"Neue Kronenzeitung";"Pressefoerderung";"KommAustria";"20000";"2012";"§ 10 Abs.1 PresseFG 2004";"Muthgasse 2";"1190";"Wien";"abgeschlossen";"10000";"10000";"";"Zuschuss zu den Kosten der redaktionsinternen Ausbildung von Nachwuchsjournalisten - Tageszeitungen";"";"";""
"OÖ Media Data Vertriebs- und Verlagsges.m.b.H.";"Neues Volksblatt";"Pressefoerderung";"KommAustria";"20000";"2012";"§ 10 Abs.1 PresseFG 2004";"Hafenstraße 1-3";"4010";"Linz";"abgeschlossen";"10000";"10000";"";"Zuschuss zu den Kosten der redaktionsinternen Ausbildung von Nachwuchsjournalisten - Tageszeitungen";"";"";""
"OÖN Redaktion GmbH & CO KG";"OÖ Nachrichten";"Pressefoerderung";"KommAustria";"20000";"2012";"§ 10 Abs.1 PresseFG 2004";"Promenade 23";"4020";"Linz";"abgeschlossen";"10000";"10000";"";"Zuschuss zu den Kosten der redaktionsinternen Ausbildung von Nachwuchsjournalisten - Tageszeitungen";"";"";""
"Salzburger Volkszeitung GmbH & Co KG";"SVZ Salzburger Volkszeitung";"Pressefoerderung";"KommAustria";"20000";"2012";"§ 10 Abs.1 PresseFG 2004";"Schrannengasse 6";"5020";"Salzburg";"abgeschlossen";"10000";"10000";"";"Zuschuss zu den Kosten der redaktionsinternen Ausbildung von Nachwuchsjournalisten - Tageszeitungen";"";"";""
"Standard Verlagsgesellschaft m.b.H.";"Der Standard";"Pressefoerderung";"KommAustria";"20000";"2012";"§ 10 Abs.1 PresseFG 2004";"Herrengasse 19-21";"1010";"Wien";"abgeschlossen";"10000";"10000";"";"Zuschuss zu den Kosten der redaktionsinternen Ausbildung von Nachwuchsjournalisten - Tageszeitungen";"";"";""
"Zeitungs- und Verlagsges.m.b.H.";"Neue Vorarlberger Tageszeitung";"Pressefoerderung";"KommAustria";"3000";"2012";"§ 10 Abs.1 PresseFG 2004";"Gutenbergstraße 1";"6858";"Schwarzach";"abgeschlossen";"1500";"1500";"";"Zuschuss zu den Kosten der redaktionsinternen Ausbildung von Nachwuchsjournalisten - Tageszeitungen";"";"";""
"BVZ Burgenländische Volkszeitung GmbH";"BVZ";"Pressefoerderung";"KommAustria";"0";"2012";"§ 10 Abs.1 PresseFG 2004";"Hauptstraße 52a";"7000";"Eisenstadt";"abgelehnt";"0";"0";"";"Zuschuss zu den Kosten der redaktionsinternen Ausbildung von Nachwuchsjournalisten - Wochenzeitungen";"";"";""
"Falter Zeitschriftengesellschaft m.b.H.";"Falter";"Pressefoerderung";"KommAustria";"20000";"2012";"§ 10 Abs.1 PresseFG 2004";"Marc-Aurel-Straße 9";"1010";"Wien";"abgeschlossen";"10000";"10000";"";"Zuschuss zu den Kosten der redaktionsinternen Ausbildung von Nachwuchsjournalisten - Wochenzeitungen";"";"";""
"Niederösterreichisches Pressehaus Druck- und Verlagsges.m.b.H.";"NÖN";"Pressefoerderung";"KommAustria";"20000";"2012";"§ 10 Abs.1 PresseFG 2004";"Gutenbergstraße 12";"3100";"St. Pölten";"abgeschlossen";"10000";"10000";"";"Zuschuss zu den Kosten der redaktionsinternen Ausbildung von Nachwuchsjournalisten - Wochenzeitungen";"";"";""
"Salzburger Woche Verlags GmbH";"Salzburger Woche";"Pressefoerderung";"KommAustria";"20000";"2012";"§ 10 Abs.1 PresseFG 2004";"Ing. Ludwig-Pech-Str. 1";"5600";"St. Johann im Pongau";"abgeschlossen";"10000";"10000";"";"Zuschuss zu den Kosten der redaktionsinternen Ausbildung von Nachwuchsjournalisten - Wochenzeitungen";"";"";""
"Verlagsgruppe NEWS Gesellschaft m.b.H.";"NEWS";"Pressefoerderung";"KommAustria";"20000";"2012";"§ 10 Abs.1 PresseFG 2004";"Taborstrasse 1-3";"1020";"Wien";"abgeschlossen";"10000";"10000";"";"Zuschuss zu den Kosten der redaktionsinternen Ausbildung von Nachwuchsjournalisten - Wochenzeitungen";"";"";""
"Verlagsgruppe NEWS Gesellschaft m.b.H.";"tv media";"Pressefoerderung";"KommAustria";"20000";"2012";"§ 10 Abs.1 PresseFG 2004";"Taborstrasse 1-3";"1020";"Wien";"abgeschlossen";"10000";"10000";"";"Zuschuss zu den Kosten der redaktionsinternen Ausbildung von Nachwuchsjournalisten - Wochenzeitungen";"";"";""
"Fachhochschule St. Pölten GmbH (Institut für Medienwirtschaft)";"Konvergenz und Geschäftsmodelle: Innovationen bei Tageszeitungen";"Pressefoerderung";"KommAustria";"0";"2012";"§ 11 Abs.3 PresseFG 2004";"Matthias Corvinus-Straße 15";"3100";"St. Pölten";"abgelehnt";"0";"0";"";"Zuschuss zu Forschungsprojekten";"";"";""
"Institut für Strategieanalysen GmbH";"Vielfalt und Verständlichkeit medialer Berichterstattung zu ausgewählten Schwerpunkten der Staatsschuldenkrise im Euro-Raum in österreichischen Printmedien";"Pressefoerderung";"KommAustria";"0";"2012";"§ 11 Abs.3 PresseFG 2004";"Parkring 12/3/Top87f";"1010";"Wien";"abgelehnt";"0";"0";"";"Zuschuss zu Forschungsprojekten";"";"";""
"Medienhaus Wien - Forschung und Weiterbildung GmbH";"Newsroom revisited - Neue Integrationsprozesse in Tagezeitungs-Newsrooms im internationalen Vergleich";"Pressefoerderung";"KommAustria";"20000";"2012";"§ 11 Abs.3 PresseFG 2004";"Alser Straße 22/8";"1090";"Wien";"abgeschlossen";"10000";"10000";"";"Zuschuss zu Forschungsprojekten";"";"";""
"ÖCV und ÖAHB";"ACADEMIA  Zeitschrift für Politik, Wirtschaft, Religion, Kultur";"Publizistikfoerderung";"KommAustria";"4397.9";"2012";"Abschnitt II PubFG 1984";"Lerchenfelderstraße 14";"1080";"Wien";"abgeschlossen";"";"";"";"";"";"";""
"Arbeitskreis Emanzipation und Partnerschaft AEP";"AEP-Informationen - feministische Zeitschrift für Politik und Gesellschaft";"Publizistikfoerderung";"KommAustria";"4397.9";"2012";"Abschnitt II PubFG 1984";"Müllerstr. 26";"6020";"Innsbruck";"abgeschlossen";"";"";"";"";"";"";""
"FÖJ  Bewegung für Sozialismus (Freie österreichische Jugend)";"AKIN";"Publizistikfoerderung";"KommAustria";"4397.9";"2012";"Abschnitt II PubFG 1984";"Belvederegasse 10";"1040";"Wien";"abgeschlossen";"";"";"";"";"";"";""
"Alfred Klahr Gesellschaft";"ALFRED KLAHR GESELLSCHAFT. MITTEILLUNGEN";"Publizistikfoerderung";"KommAustria";"1364";"2012";"Abschnitt II PubFG 1984";"Drechslergasse 42";"1140";"Wien";"abgeschlossen";"";"";"";"";"";"";""
"Verein von AusländerInnen- u. Flüchtlingshilfsorganisationen u. betreuerInnen";"ASYL AKTUELL";"Publizistikfoerderung";"KommAustria";"4397.9";"2012";"Abschnitt II PubFG 1984";"Laudongasse 52/9";"1080";"Wien";"abgeschlossen";"";"";"";"";"";"";""
"Ballesterer Zeitschriftenverlag GmbH";"BALLESTERER. fm Fußballmagazin";"Publizistikfoerderung";"KommAustria";"7330";"2012";"Abschnitt II PubFG 1984";"Porzellangasse 11/69";"1090";"Wien";"abgeschlossen";"";"";"";"";"";"";""
"Verein Initiativ für behinderte Kinder und Jugendliche";"BEHINDERTE MENSCHEN - Zeitschrift für gemeinsames Leben, Lernen und Arbeiten";"Publizistikfoerderung";"KommAustria";"8796";"2012";"Abschnitt II PubFG 1984";"Alberstraße 8";"8010";"Graz";"abgeschlossen";"";"";"";"";"";"";""
"Bizeps - Zentrum für selbstbestimmtes Leben";"BIZEPS INFO";"Publizistikfoerderung";"KommAustria";"1364";"2012";"Abschnitt II PubFG 1984";"Schönngasse 15-17/4";"1020";"Wien";"abgeschlossen";"";"";"";"";"";"";""
"KPÖ-Oberösterreich";"CAFÉ KPÖ";"Publizistikfoerderung";"KommAustria";"1364";"2012";"Abschnitt II PubFG 1984";"Melicharstraße 8";"4020";"Linz";"abgeschlossen";"";"";"";"";"";"";""
"Mittelschüler-Kartell-Verband (MKV)";"COULEUR";"Publizistikfoerderung";"KommAustria";"4397.9";"2012";"Abschnitt II PubFG 1984";"Laudongasse 16/3/1";"1080";"Wien";"abgeschlossen";"";"";"";"";"";"";""
"Österreichisch-Kubanische Gesellschaft";"CUBA SI";"Publizistikfoerderung";"KommAustria";"4397.9";"2012";"Abschnitt II PubFG 1984";"Seisgasse 1";"1040";"Wien";"abgeschlossen";"";"";"";"";"";"";""
"FI Dr. Lars Amann, Evang. Schulamt Wien, Abt. Pflichtschulen";"Das WORT  Evangelische Beiträge zu Bildung und Unterricht";"Publizistikfoerderung";"KommAustria";"4397.9";"2012";"Abschnitt II PubFG 1984";"Hamburgerstraße 3";"1050";"Wien";"abgeschlossen";"";"";"";"";"";"";""
"DATUM Verlag GmbH";"DATUM - Seiten der Zeit";"Publizistikfoerderung";"KommAustria";"0";"2012";"Abschnitt II PubFG 1984";"Rasumofskygasse 21";"1030";"Wien";"abgelehnt";"";"";"";"";"";"";""
"Österreichisches Frauenforum Feministische Theologie";"Der APFEL  Zeitschrift des Österreichischen Frauenforums Feministische Theologie";"Publizistikfoerderung";"KommAustria";"4397.9";"2012";"Abschnitt II PubFG 1984";"Baum 1";"4880";"Berg im Attergau";"abgeschlossen";"";"";"";"";"";"";""
"Verein Gesellschaft und Politik";"Der FUNKE";"Publizistikfoerderung";"KommAustria";"4397.9";"2012";"Abschnitt II PubFG 1984";"Lustkandlgasse 10/1";"1090";"Wien";"abgeschlossen";"";"";"";"";"";"";""
"Forschungs- und Kuturverein für Kontinentalamerika und die Karibik";"Der KONAK";"Publizistikfoerderung";"KommAustria";"4397.9";"2012";"Abschnitt II PubFG 1984";"Arthaberplatz 4/4";"1100";"Wien";"abgeschlossen";"";"";"";"";"";"";""
"Merker Verein, Dr. Sieglinde Pfabigan";"Der NEUE MERKER";"Publizistikfoerderung";"KommAustria";"1364";"2012";"Abschnitt II PubFG 1984";"Peitlg. 7/3/4";"1210";"Wien";"abgeschlossen";"";"";"";"";"";"";""
"Koordinierungsausschuss für christlich-jüdische Zusammenarbeit";"DIALOG  Du Siach Christlich-jüdische Informationen";"Publizistikfoerderung";"KommAustria";"4397.9";"2012";"Abschnitt II PubFG 1984";"Tandelmarktgasse 5";"1020";"Wien";"abgeschlossen";"";"";"";"";"";"";""
"Alternative und Grüne GewerkschafterInnen - UG";"Die ALTERNATIVE";"Publizistikfoerderung";"KommAustria";"4397.9";"2012";"Abschnitt II PubFG 1984";"Belvederegasse 10";"1040";"Wien";"abgeschlossen";"";"";"";"";"";"";""
"Gewerkschaftlicher Linksblock";"Die ARBEIT";"Publizistikfoerderung";"KommAustria";"2046";"2012";"Abschnitt II PubFG 1984";"Hugogasse 8";"1110";"Wien";"abgeschlossen";"";"";"";"";"";"";""
"Verein Multikulturelles Netzwerk";"Die Brille";"Publizistikfoerderung";"KommAustria";"0";"2012";"Abschnitt II PubFG 1984";"Neustiftgasse 78/1";"1070";"Wien";"abgelehnt";"";"";"";"";"";"";""
"Israelitische Kultusgemeinde Wien";"Die GEMEINDE";"Publizistikfoerderung";"KommAustria";"null";"2012";"Abschnitt II PubFG 1984";"Seitenstettengasse 4";"1010";"Wien";"abgelehnt";"";"";"";"";"";"";""
"Österreichische Kinderfreunde - Bundesorganisation";"DIE KINDER (vormals Familienmagazin)";"Publizistikfoerderung";"KommAustria";"4397.9";"2012";"Abschnitt II PubFG 1984";"Rauhensteingasse 5/5";"1010";"Wien";"abgeschlossen";"";"";"";"";"";"";""
"Verein für kulturelle Informationen";"Die SEITEN - Zeitschrift des Vereins für kulturelle Information";"Publizistikfoerderung";"KommAustria";"1364";"2012";"Abschnitt II PubFG 1984";"Spengergasse 40/4";"1050";"Wien";"abgeschlossen";"";"";"";"";"";"";""
"Evangelische Frauenarbeit in Österreich";"EFA";"Publizistikfoerderung";"KommAustria";"4397.9";"2012";"Abschnitt II PubFG 1984";"Blumengasse 4/6";"1180";"Wien";"abgeschlossen";"";"";"";"";"";"";""
"Katholischer Familienverband Österreichs";"EHE UND FAMILIEN";"Publizistikfoerderung";"KommAustria";"4397.9";"2012";"Abschnitt II PubFG 1984";"Spiegelgasse 3/3/9";"1010";"Wien";"abgeschlossen";"";"";"";"";"";"";""
"Facultas Verlags- und Buchhandels AG";"EUROPA ETHNIKA";"Publizistikfoerderung";"KommAustria";"0";"2012";"Abschnitt II PubFG 1984";"Stolberggasse 26";"1050";"Wien";"abgelehnt";"";"";"";"";"";"";""
"Facultas Verlags- und Buchhandels AG";"FACHSPRACHE";"Publizistikfoerderung";"KommAustria";"0";"2012";"Abschnitt II PubFG 1984";"Stolberggasse 26";"1050";"Wien";"abgelehnt";"";"";"";"";"";"";""
"Freidenkerbund Österreichs";"FREIDENKER/IN - Organ des österr. Freidenkerbundes";"Publizistikfoerderung";"KommAustria";"1364";"2012";"Abschnitt II PubFG 1984";"Postfach 54";"1153";"Wien";"abgeschlossen";"";"";"";"";"";"";""
"Österreichischer Gehörlosenbund";"GEBÄRDENSACHE";"Publizistikfoerderung";"KommAustria";"null";"2012";"Abschnitt II PubFG 1984";"Waldgasse 13/2";"1100";"Wien";"abgelehnt";"";"";"";"";"";"";""
"GEDENKDIENST";"GEDENKDIENST";"Publizistikfoerderung";"KommAustria";"4397.9";"2012";"Abschnitt II PubFG 1984";"Margaretenstraße 166/4";"1050";"Wien";"abgeschlossen";"";"";"";"";"";"";""
"IG Freie Theaterarbeit";"GIFT - Zeitschrift für freies Theater";"Publizistikfoerderung";"KommAustria";"4397.9";"2012";"Abschnitt II PubFG 1984";"Gumpendorferstraße 63B";"1060";"Wien";"abgeschlossen";"";"";"";"";"";"";""
"Akademisches Forum für Außenpolitik";"GLOBAL View";"Publizistikfoerderung";"KommAustria";"4397.9";"2012";"Abschnitt II PubFG 1984";"Johannesgasse 2/2/32";"1010";"Wien";"abgeschlossen";"";"";"";"";"";"";""
"Partei Grundrisse c/o Dr. Karl Reitter";"GRUNDRISSE  Zeitschrift für Linke Theorie & Debatte";"Publizistikfoerderung";"KommAustria";"4397.9";"2012";"Abschnitt II PubFG 1984";"Antonigasse 100/8";"1180";"Wien";"abgeschlossen";"";"";"";"";"";"";""
"Verein für Geschichte u. Sozialkunde c/o Institut f. Wirtschafts- und Sozialgeschichte der Universität Wien";"HISTORISCHE SOZIALKUNDE: Geschichte  Fachdidaktik  Politische Bildung";"Publizistikfoerderung";"KommAustria";"4397.9";"2012";"Abschnitt II PubFG 1984";"Dr. Karl-Lueger-Ring 1";"1010";"Wien";"abgeschlossen";"";"";"";"";"";"";""
"Dokumentations- und Kooperationszentrum Südliches Afrika (SADOCC)";"INDABA - Das SADOCC-Magazin für das Südliche Afrika";"Publizistikfoerderung";"KommAustria";"4397.9";"2012";"Abschnitt II PubFG 1984";"Favoritenstraße 38/18/1";"1040";"Wien";"abgeschlossen";"";"";"";"";"";"";""
"Verein ARGE für internationale Publizistik";"INTERNATIONAL - Zeitschrift für internationale Politik";"Publizistikfoerderung";"KommAustria";"4397.9";"2012";"Abschnitt II PubFG 1984";"Anschützgasse 1/2. Stock";"1150";"Wien";"abgeschlossen";"";"";"";"";"";"";""
"Leihbücherei, Druckerei u. Lehrmittelverlag des Bundes-Blindenerziehungsinstitutes";"JOHANN WILHELM KLEIN";"Publizistikfoerderung";"KommAustria";"4397.9";"2012";"Abschnitt II PubFG 1984";"Wittelsbachstr. 5";"1020";"Wien";"abgeschlossen";"";"";"";"";"";"";""
"StudienVerlag GmbH";"JOURNAL für SCHULENTWICKLUNG";"Publizistikfoerderung";"KommAustria";"4397.9";"2012";"Abschnitt II PubFG 1984";"Erlerstraße 10";"6020";"Innsbruck";"abgeschlossen";"";"";"";"";"";"";""
"Evangelische Jugend Österreich";"JUNGE GEMEINDE";"Publizistikfoerderung";"KommAustria";"7330";"2012";"Abschnitt II PubFG 1984";"Liechtensteinstr. 20/9";"1090";"Wien";"abgeschlossen";"";"";"";"";"";"";""
"Katholisches Jugendwerk Österreichs";"JUNGE KIRCHE - Fachzeitschrift für Kinder- und Jugendpastoral";"Publizistikfoerderung";"KommAustria";"4397.9";"2012";"Abschnitt II PubFG 1984";"Johannesgasse 16/1";"1010";"Wien";"abgeschlossen";"";"";"";"";"";"";""
"Verlag Österreich GmbH - Post an: Verein Context, z.Hd. Herrn Mag. Joachim Stern";"JURIDIKUM - zeitschrift für kritik/recht/gesellschaft";"Publizistikfoerderung";"KommAustria";"4397.9";"2012";"Abschnitt II PubFG 1984";"Schottenbastei 10-16";"1010";"Wien";"abgeschlossen";"";"";"";"";"";"";""
"Verein für gewaltlose Erziehung";"KINDERSCHUTZ AKTIV";"Publizistikfoerderung";"KommAustria";"2046";"2012";"Abschnitt II PubFG 1984";"Obere Augartenstraße 26-28";"1020";"Wien";"abgeschlossen";"";"";"";"";"";"";""
"Rudolf Schermann";"KIRCHE IN";"Publizistikfoerderung";"KommAustria";"8796";"2012";"Abschnitt II PubFG 1984";"Keplergasse 8";"1100";"Wien";"abgeschlossen";"";"";"";"";"";"";""
"Altkatholische Kirche Österreichs";"KIRCHE IN BEWEGUNG (vormals: ALTKATHOLISCHE KIRCHENZEITUNG";"Publizistikfoerderung";"KommAustria";"4397.9";"2012";"Abschnitt II PubFG 1984";"Schottenring 17/1/3/12";"1010";"Wien";"abgeschlossen";"";"";"";"";"";"";""
"Sozialwissenschaftliche Vereinigung";"KONTRASTE - Presse- und Informationsdienst für Sozialpolitik";"Publizistikfoerderung";"KommAustria";"4397.9";"2012";"Abschnitt II PubFG 1984";"Altenbergerstraße 69";"4040";"Linz";"abgeschlossen";"";"";"";"";"";"";""
"Aktion Kritisches Christentum";"KRITISCHES CHRISTENTUM";"Publizistikfoerderung";"KommAustria";"1364";"2012";"Abschnitt II PubFG 1984";"Mühlgasse 25/5";"1040";"Wien";"abgeschlossen";"";"";"";"";"";"";""
"Sonderzahl Verlagsges. mbH";"KURSWECHSEL";"Publizistikfoerderung";"KommAustria";"7330";"2012";"Abschnitt II PubFG 1984";"Große Neugasse 35/15";"1040";"Wien";"abgeschlossen";"";"";"";"";"";"";""
"Homosexuelle Initiative (HOSI) Wien";"LAMBDA - Nachrichten";"Publizistikfoerderung";"KommAustria";"4397.9";"2012";"Abschnitt II PubFG 1984";"Novaragasse 40";"1020";"Wien";"abgeschlossen";"";"";"";"";"";"";""
"Informationsgruppe Lateinamerika (IGLA) c/o WUK";"LATEINAMERIKA ANDERS";"Publizistikfoerderung";"KommAustria";"4397.9";"2012";"Abschnitt II PubFG 1984";"Währingerstraße 59";"1090";"Wien";"abgeschlossen";"";"";"";"";"";"";""
"Österreichische Lebensbewegung-Medien";"LEBENSBEWEGT";"Publizistikfoerderung";"KommAustria";"null";"2012";"Abschnitt II PubFG 1984";"Rasumofskygasse 1/8";"1030";"Wien";"abgelehnt";"";"";"";"";"";"";""
"Verein zur Förderung medialer Vielfalt und Qualität";"MALMOE";"Publizistikfoerderung";"KommAustria";"5864";"2012";"Abschnitt II PubFG 1984";"Belvederegasse 24/15";"1040";"Wien";"abgeschlossen";"";"";"";"";"";"";""
"Arbeitskreis für historische Kommunikationsforschung (AHK)";"MEDIEN & ZEIT - Kommunikation in Vergangenheit und Gegenwart";"Publizistikfoerderung";"KommAustria";"5864";"2012";"Abschnitt II PubFG 1984";"Schopenhauerstraße 32";"1180";"Wien";"abgeschlossen";"";"";"";"";"";"";""
"Österreichische Gesellschaft für Kommunikationswissenschaft - ÖGK";"MEDIEN JOURNAL";"Publizistikfoerderung";"KommAustria";"4397.9";"2012";"Abschnitt II PubFG 1984";"Rudolfskai 42";"5020";"Salzburg";"abgeschlossen";"";"";"";"";"";"";""
"Facultas Verlags- und Buchhandels AG";"MIGRALEX";"Publizistikfoerderung";"KommAustria";"0";"2012";"Abschnitt II PubFG 1984";"Stolberggasse 26";"1050";"Wien";"abgelehnt";"";"";"";"";"";"";""
"Kirchliches Institut Canisiuswerk  Zentrum für geistliche Berufe";"MITEINANDER  Welt und geistliche Berufung";"Publizistikfoerderung";"KommAustria";"1364";"2012";"Abschnitt II PubFG 1984";"Stephansplatz 6";"1010";"Wien";"abgeschlossen";"";"";"";"";"";"";""
"Kath. Sozialakademie Österreichs";"NACHRICHTEN und Stellungnahmen der Kath. Sozialakademie Österreichs";"Publizistikfoerderung";"KommAustria";"4397.9";"2012";"Abschnitt II PubFG 1984";"Schottenring 35/DG";"1010";"Wien";"abgeschlossen";"";"";"";"";"";"";""
"ARGE für Informationen über Nicaragua";"NICARAGUA  Nachrichten";"Publizistikfoerderung";"KommAustria";"1364";"2012";"Abschnitt II PubFG 1984";"Hauptstraße 69";"3494";"Brunn im Felde";"abgeschlossen";"";"";"";"";"";"";""
"Verein Arbeitsgemeinschaft Jüdisches Forum";"NU - News über uns";"Publizistikfoerderung";"KommAustria";"7330";"2012";"Abschnitt II PubFG 1984";"Esteplatz 6/5";"1030";"Wien";"abgeschlossen";"";"";"";"";"";"";""
"Kulturverein Pangea";"PARADIGMATA - Zeitschrift für Menschen und Diskurse";"Publizistikfoerderung";"KommAustria";"1364";"2012";"Abschnitt II PubFG 1984";"Aßmayergasse 22/2";"1120";"Wien";"abgeschlossen";"";"";"";"";"";"";""
"Pax Christi Österreich";"PAX  Die Zeitung der Friedensbewegung Pax Christi Österreich";"Publizistikfoerderung";"KommAustria";"1364";"2012";"Abschnitt II PubFG 1984";"Mengerstr. 23";"4040";"Linz";"abgeschlossen";"";"";"";"";"";"";""
"Dr. Gerfried Sperl";"PHOENIX";"Publizistikfoerderung";"KommAustria";"4397.9";"2012";"Abschnitt II PubFG 1984";"Römerstraße 11";"2424";"Zurndorf";"abgeschlossen";"";"";"";"";"";"";""
"Verein zur Förderung der Information über Schwule, Lesben und TransGender-Personen";"PRIDE - Das lesbisch/schwule Österreichmagazin";"Publizistikfoerderung";"KommAustria";"4397.9";"2012";"Abschnitt II PubFG 1984";"Gerstnerstraße 13";"4040";"Linz";"abgeschlossen";"";"";"";"";"";"";""
"Robert-Jungk-Bibliothek für Zukunftsfragen";"PRO ZUKUNFT";"Publizistikfoerderung";"KommAustria";"null";"2012";"Abschnitt II PubFG 1984";"Robert-Jungk-Platz 1";"5020";"Salzburg";"abgelehnt";"";"";"";"";"";"";""
"Forum Katholischer AkademikerInnen Österreichs";"QUART";"Publizistikfoerderung";"KommAustria";"4397.9";"2012";"Abschnitt II PubFG 1984";"Währingerstraße 2-4";"1090";"Wien";"abgeschlossen";"";"";"";"";"";"";""
"Evangelischer Oberkirchenrat H.B.";"REFORMIERTES KIRCHENBLATT";"Publizistikfoerderung";"KommAustria";"8796";"2012";"Abschnitt II PubFG 1984";"Dorotheergasse 16";"1010";"Wien";"abgeschlossen";"";"";"";"";"";"";""
"Petrus Bsteh, Forum für Weltreligionen";"RELIGIONEN UNTERWEGS";"Publizistikfoerderung";"KommAustria";"4397.9";"2012";"Abschnitt II PubFG 1984";"Fasangartengasse 101/7";"1130";"Wien";"abgeschlossen";"";"";"";"";"";"";""
"Evangelischer Presseverband in Ö.";"SAAT  Evangelische Kirchenzeitung für Österreich";"Publizistikfoerderung";"KommAustria";"10262";"2012";"Abschnitt II PubFG 1984";"Ungargasse 9/10";"1030";"Wien";"abgeschlossen";"";"";"";"";"";"";""
"Österreichisch-israelitische Gesellschaft";"SCHALOM";"Publizistikfoerderung";"KommAustria";"null";"2012";"Abschnitt II PubFG 1984";"Langegasse 64";"1080";"Wien";"abgelehnt";"";"";"";"";"";"";""
"Verein der Freunde der Katholischen Medien Akademie";"SCHOTTENGASSE";"Publizistikfoerderung";"KommAustria";"4397.9";"2012";"Abschnitt II PubFG 1984";"Schottengasse 3/7/39";"1010";"Wien";"abgeschlossen";"";"";"";"";"";"";""
"StudienVerlag GmbH, Abteilung Wissenschaft";"SCHULHEFT";"Publizistikfoerderung";"KommAustria";"7330";"2012";"Abschnitt II PubFG 1984";"Erlerstraße 10";"6020";"Innsbruck";"abgeschlossen";"";"";"";"";"";"";""
"ÖBDS - Österr. Berufsverband der SozialarbeiterInnen";"SIO - SOZIALARBEIT in Österreich";"Publizistikfoerderung";"KommAustria";"4397.9";"2012";"Abschnitt II PubFG 1984";"Mariahilferstr. 81/1/3/14";"1060";"Wien";"abgeschlossen";"";"";"";"";"";"";""
"Menschen für Solidarität, Ökologie und Lebensstil";"SOL";"Publizistikfoerderung";"KommAustria";"4397.9";"2012";"Abschnitt II PubFG 1984";"Penzinger Straße 18/2";"1140";"Wien";"abgeschlossen";"";"";"";"";"";"";""
"Interdisziplinäres Forschungszentrum für Technik, Arbeit und Kultur (IFZ)";"SOZIALE TECHNIK";"Publizistikfoerderung";"KommAustria";"4397.9";"2012";"Abschnitt II PubFG 1984";"Schlögelgasse 2";"8010";"Graz";"abgeschlossen";"";"";"";"";"";"";""
"Internationaler Versöhnungsbund  österr. Zweig";"SPINNRAD";"Publizistikfoerderung";"KommAustria";"4397.9";"2012";"Abschnitt II PubFG 1984";"Ledererg. 23/3/27";"1080";"Wien";"abgeschlossen";"";"";"";"";"";"";""
"Evangelischer Bund in Österreich";"STANDPUNKT";"Publizistikfoerderung";"KommAustria";"5864";"2012";"Abschnitt II PubFG 1984";"Ungargasse 9";"1030";"Wien";"abgeschlossen";"";"";"";"";"";"";""
"Dr. Heinz Kienzl";"SWS-RUNDSCHAU";"Publizistikfoerderung";"KommAustria";"4397.9";"2012";"Abschnitt II PubFG 1984";"Maria Theresien-Straße 9/8B";"1090";"Wien";"abgeschlossen";"";"";"";"";"";"";""
"Verein Salzburg  Kommunikation und Kultur";"TALK TOGETHER";"Publizistikfoerderung";"KommAustria";"4397.9";"2012";"Abschnitt II PubFG 1984";"E.-Heinrich-Straße 1b/10";"5020";"Salzburg";"abgeschlossen";"";"";"";"";"";"";""
"Gerald Grassl";"TARANTEL - Zeitschrift für Kultur von Unten";"Publizistikfoerderung";"KommAustria";"4397.9";"2012";"Abschnitt II PubFG 1984";"Vivariumstraße 8/4/18";"1020";"Wien";"abgeschlossen";"";"";"";"";"";"";""
"Verein "Die Bunten, Forum für Würde, Gerechtigkeit und Demokratie"";"The Global Player (vormals: Die Bunte Zeitung)";"Publizistikfoerderung";"KommAustria";"8796";"2012";"Abschnitt II PubFG 1984";"Rotenlöwengasse 12/1";"1090";"Wien";"abgeschlossen";"";"";"";"";"";"";""
"Österreichische HochschülerInnenschaft Salzburg";"Uni:Press - Studierendenzeitung der Österreichischen HochschülerInnenschaft Salzburg";"Publizistikfoerderung";"KommAustria";"null";"2012";"Abschnitt II PubFG 1984";"Kaigasse 28";"5020";"Salzburg";"abgelehnt";"";"";"";"";"";"";""
"LW Werbe- und Verlags-GmbH";"UNIVERSUM MAGAZIN";"Publizistikfoerderung";"KommAustria";"null";"2012";"Abschnitt II PubFG 1984";"Ringstraße 44";"3500";"Krems an der Donau";"abgelehnt";"";"";"";"";"";"";""
"Offiziersgesellschaft Wien";"UNSER AUFTRAG";"Publizistikfoerderung";"KommAustria";"1364";"2012";"Abschnitt II PubFG 1984";"Schwarzenbergplatz 1";"1010";"Wien";"abgeschlossen";"";"";"";"";"";"";""
"VCÖ Verkehrsclub Österreich";"VCÖ-Magazin";"Publizistikfoerderung";"KommAustria";"null";"2012";"Abschnitt II PubFG 1984";"Bräuhausgasse 7-9";"1050";"Wien";"abgelehnt";"";"";"";"";"";"";""
"Mag.a Saschka Zhurkov";"VIENNA DNES - WIEN HEUTE";"Publizistikfoerderung";"KommAustria";"1364";"2012";"Abschnitt II PubFG 1984";"Margaretengürtel 82-88/2/14";"1050";"Wien";"abgeschlossen";"";"";"";"";"";"";""
"Verein für Gesellschaftskritik";"VOLKSSTIMME";"Publizistikfoerderung";"KommAustria";"1364";"2012";"Abschnitt II PubFG 1984";"Liechtensteinstraße 123";"1090";"Wien";"abgeschlossen";"";"";"";"";"";"";""
"Sozialistische LinksPartei/SLP";"VORWÄRTS";"Publizistikfoerderung";"KommAustria";"1364";"2012";"Abschnitt II PubFG 1984";"Pappenheimgasse 2/1";"1200";"Wien";"abgeschlossen";"";"";"";"";"";"";""
"Solidar-Werkstatt Österreich";"WERKSTATT-Blatt (vormals Guernica)";"Publizistikfoerderung";"KommAustria";"1364";"2012";"Abschnitt II PubFG 1984";"Waltherstr. 15b";"4020";"Linz";"abgeschlossen";"";"";"";"";"";"";""
"YOU! Verein - Jugendverein für christlich-katholische Werte";"YOU! MAGAZIN";"Publizistikfoerderung";"KommAustria";"4397.9";"2012";"Abschnitt II PubFG 1984";"Ebendorferstraße 8";"1010";"Wien";"abgeschlossen";"";"";"";"";"";"";""
"Kath. Männerbewegung der Diözese St. Pölten";"YPSILON  MÄNNERMAGAZIN der kath. Männerbewegung";"Publizistikfoerderung";"KommAustria";"1364";"2012";"Abschnitt II PubFG 1984";"Klostergasse 15";"3100";"St. Pölten";"abgeschlossen";"";"";"";"";"";"";""
"Verein Zebra";"ZEBRATL";"Publizistikfoerderung";"KommAustria";"4397.9";"2012";"Abschnitt II PubFG 1984";"Pestalozzistr. 59/II";"8010";"Graz";"abgeschlossen";"";"";"";"";"";"";""
"Katholische Arbeitnehmer - Bildungs- und Hilfswerk Österreich";"ZEITZEICHEN";"Publizistikfoerderung";"KommAustria";"4397.9";"2012";"Abschnitt II PubFG 1984";"Spiegelgasse 3/2";"1010";"Wien";"abgeschlossen";"";"";"";"";"";"";""
"Institut für Österreichkunde";"ÖGL - Österreich in Geschichte und Literatur mit Geographie";"Publizistikfoerderung";"KommAustria";"null";"2012";"Abschnitt II PubFG 1984";"Hanuschgasse 3/Stiege 1/5";"1010";"Wien";"abgelehnt";"";"";"";"";"";"";""
"Facultas Verlags- und Buchhandels AG";"ÖSTERREICHISCHE ZEITSCHRIFT FÜR POLITIKWISSENSCHAFT (ÖZP)";"Publizistikfoerderung";"KommAustria";"7330";"2012";"Abschnitt II PubFG 1984";"Stolberggasse 26";"1050";"Wien";"abgeschlossen";"";"";"";"";"";"";""
"Facultas Verlags- und Buchhandels AG";"Österreichische Zeitschrift für Wirtschaftsrecht";"Publizistikfoerderung";"KommAustria";"null";"2012";"Abschnitt II PubFG 1984";"Stolberggasse 26";"1050";"Wien";"abgelehnt";"";"";"";"";"";"";""
"Aichholzer Filmproduktion GmbH";"Spuren des Bösen III - Zauberberg";"Fernsehfonds";"RTR";"458122";"2012";"Film";"";"";"";"";"";"";"Spuren des Bösen III - Zauberberg";"Film";"2. Einreichtermin";"90";"1992942.01"
"Aichholzer Filmproduktion GmbH";"Die Wanderhure III - Das Vermächtnis der Wanderhure";"Fernsehfonds";"RTR";"682630";"2012";"Film";"";"";"";"";"";"";"Die Wanderhure III - Das Vermächtnis der Wanderhure";"Film";"1. Einreichtermin";"120";"5772242"
"ALLEGRO Filmproduktionsgesellschaft m.b.H.";"Steirerblut";"Fernsehfonds";"RTR";"506193";"2012";"Film";"";"";"";"";"";"";"Steirerblut";"Film";"2. Einreichtermin";"90";"1693322"
"AMOUR FOU Filmproduktion GmbH";"Arik Brauer. Eine Jugend in Wien";"Fernsehfonds";"RTR";"32620";"2012";"Dokumentation";"";"";"";"";"";"";"Arik Brauer. Eine Jugend in Wien";"Dokumentation";"1. Einreichtermin";"45";"116814"
"artkicks. DI Helmut Potutschnig";"Die Burgenländischen Kroaten";"Fernsehfonds";"RTR";"11381";"2012";"Dokumentation";"";"";"";"";"";"";"Die Burgenländischen Kroaten";"Dokumentation";"2. Einreichtermin";"6 x 25";"57556.04"
"Berge 7 Filmproduktions GmbH";"Ruf der Pferde";"Fernsehfonds";"RTR";"320000";"2012";"Film";"";"";"";"";"";"";"Ruf der Pferde";"Film";"3. Einreichtermin";"90";"1602260"
"Breitwandfilm Medienproduktion, Design und Verleih GesmbH";"Schlawiner / 2. Staffel";"Fernsehfonds";"RTR";"489793";"2012";"Serie";"";"";"";"";"";"";"Schlawiner / 2. Staffel";"Serie";"2. Einreichtermin";"15 x 30";"2031590"
"Cinevision TV - & Videoproduktion Gesellschaft m.b.H. & Co KG.";"Austropop made in Styria";"Fernsehfonds";"RTR";"19993";"2012";"Dokumentation";"";"";"";"";"";"";"Austropop made in Styria";"Dokumentation";"2. Einreichtermin";"50";"99961"
"DOR FILM Produktionsgesellschaft m.b.H.";"Nationale Träume - Ungarns Abschied von Europa?";"Fernsehfonds";"RTR";"53750";"2012";"Dokumentation";"";"";"";"";"";"";"Nationale Träume - Ungarns Abschied von Europa?";"Dokumentation";"1. Einreichtermin";"52";"215581.11"
"DOR FILM Produktionsgesellschaft m.b.H.";"André Hellers Menschenkinder - 1. Staffel";"Fernsehfonds";"RTR";"31000";"2012";"Dokumentation";"";"";"";"";"";"";"André Hellers Menschenkinder - 1. Staffel";"Dokumentation";"3. Einreichtermin";"6 x 60";"159810.95"
"EPO - Filmproduktionsgesellschaft m.b.H.";"Gonsalvus";"Fernsehfonds";"RTR";"109045";"2012";"Dokumentation";"";"";"";"";"";"";"Gonsalvus";"Dokumentation";"4. Einreichtermin";"52";"681316.49"
"EPO - Filmproduktionsgesellschaft m.b.H.";"Es kommt noch dicker";"Fernsehfonds";"RTR";"1008000";"2012";"Serie";"";"";"";"";"";"";"Es kommt noch dicker";"Serie";"1. Einreichtermin";"7 x 45";"5117982.4"
"EPO - Filmproduktionsgesellschaft m.b.H.";"Inspektor Jury - Der Tote im Pub";"Fernsehfonds";"RTR";"265891.95";"2012";"Film";"";"";"";"";"";"";"Inspektor Jury - Der Tote im Pub";"Film";"4. Einreichtermin";"90";"2138204.51"
"EPO - Filmproduktionsgesellschaft m.b.H.";"Helden";"Fernsehfonds";"RTR";"750000";"2012";"Film";"";"";"";"";"";"";"Helden";"Film";"2. Einreichtermin";"140";"7887274.92"
"FILM27 Multimedia Produktions GmbH";"Die Frau in mir";"Fernsehfonds";"RTR";"345000";"2012";"Film";"";"";"";"";"";"";"Die Frau in mir";"Film";"3. Einreichtermin";"90";"1754131.03"
"Golden Girls Filmproduktion & Filmservice GmbH";"Food Markets - The Belly of the City";"Fernsehfonds";"RTR";"70000";"2012";"Dokumentation";"";"";"";"";"";"";"Food Markets - The Belly of the City";"Dokumentation";"3. Einreichtermin";"5 x 45 und 52";"833928"
"Graf Filmproduktion GmbH";"Lilly Schönauer XIV - Weiberhaushalt";"Fernsehfonds";"RTR";"270000";"2012";"Film";"";"";"";"";"";"";"Lilly Schönauer XIV - Weiberhaushalt";"Film";"2. Einreichtermin";"90";"1578677.14"
"HANN Filmproduktionsgesellschaft m.b.H.";"24 Stunden - SOKO OST";"Fernsehfonds";"RTR";"20000";"2012";"Dokumentation";"";"";"";"";"";"";"24 Stunden - SOKO OST";"Dokumentation";"3. Einreichtermin";"4 x 48";"118459.89"
"Kurt Mayer Film";"Planet der Spatzen";"Fernsehfonds";"RTR";"98608";"2012";"Dokumentation";"";"";"";"";"";"";"Planet der Spatzen";"Dokumentation";"2. Einreichtermin";"52";"504228"
"Langbein & Partner Media GmbH & Co KG";"Der Neue - Alexander Pereira";"Fernsehfonds";"RTR";"17500";"2012";"Dokumentation";"";"";"";"";"";"";"Der Neue - Alexander Pereira";"Dokumentation";"1. Einreichtermin";"52";"93273.99"
"Langbein & Partner Media GmbH & Co KG";"Wunder Heilung";"Fernsehfonds";"RTR";"32100";"2012";"Dokumentation";"";"";"";"";"";"";"Wunder Heilung";"Dokumentation";"1. Einreichtermin";"30 und 50";"162640.94"
"Langbein & Partner Media GmbH & Co KG";"Die Akte Aluminium";"Fernsehfonds";"RTR";"61472.6";"2012";"Dokumentation";"";"";"";"";"";"";"Die Akte Aluminium";"Dokumentation";"1. Einreichtermin";"52";"307363.21"
"Mabon Film GmbH";"24 Stunden - Die Motorradpolizei";"Fernsehfonds";"RTR";"28261.78";"2012";"Dokumentation";"";"";"";"";"";"";"24 Stunden - Die Motorradpolizei";"Dokumentation";"1. Einreichtermin";"7 x 48";"212011.78"
"Mabon Film GmbH";"24 Stunden - Das Unfallkommando";"Fernsehfonds";"RTR";"17498.46";"2012";"Dokumentation";"";"";"";"";"";"";"24 Stunden - Das Unfallkommando";"Dokumentation";"2. Einreichtermin";"7 x 48";"201248.46"
"MAKIDO Filmproduktion GmbH";"Die Ballclique";"Fernsehfonds";"RTR";"100000";"2012";"Dokumentation";"";"";"";"";"";"";"Die Ballclique";"Dokumentation";"1. Einreichtermin";"20 x 25";"559911.36"
"MAKIDO Filmproduktion GmbH";"Akte Grüninger";"Fernsehfonds";"RTR";"450000";"2012";"Film";"";"";"";"";"";"";"Akte Grüninger";"Film";"2. Einreichtermin";"90";"2953930.98"
"Metafilm GmbH";"Ein Dorf in der Großstadt - Die Grundsteingasse in Wien-Ottakring";"Fernsehfonds";"RTR";"30423";"2012";"Dokumentation";"";"";"";"";"";"";"Ein Dorf in der Großstadt - Die Grundsteingasse in Wien-Ottakring";"Dokumentation";"1. Einreichtermin";"52";"114904.46"
"Metafilm GmbH";"Schönbrunner Tiergeschichten";"Fernsehfonds";"RTR";"98296";"2012";"Dokumentation";"";"";"";"";"";"";"Schönbrunner Tiergeschichten";"Dokumentation";"2. Einreichtermin";"52";"345061"
"Metafilm GmbH";"Die Schöne und das Biest";"Fernsehfonds";"RTR";"300000";"2012";"Film";"";"";"";"";"";"";"Die Schöne und das Biest";"Film";"2. Einreichtermin";"80";"1693340.4"
"MISCHIEF FILMS - VEREIN ZUR FÖRDERUNG DES DOKUMENTARFILMS KEG";"Asmahan - Rauschende Nächte in Wien";"Fernsehfonds";"RTR";"52523";"2012";"Dokumentation";"";"";"";"";"";"";"Asmahan - Rauschende Nächte in Wien";"Dokumentation";"2. Einreichtermin";"52/48/71";"289883"
"MONA Film Produktion GmbH";"Die Auslöschung";"Fernsehfonds";"RTR";"611195";"2012";"Film";"";"";"";"";"";"";"Die Auslöschung";"Film";"1. Einreichtermin";"90";"2277374.33"
"MONA Film Produktion GmbH";"Medcrimes - Nebenwirkung Mord";"Fernsehfonds";"RTR";"351310";"2012";"Film";"";"";"";"";"";"";"Medcrimes - Nebenwirkung Mord";"Film";"4. Einreichtermin";"90";"1810540.86"
"MONA Film Produktion GmbH";"Schon wieder Henriette";"Fernsehfonds";"RTR";"522000";"2012";"Film";"";"";"";"";"";"";"Schon wieder Henriette";"Film";"3. Einreichtermin";"90";"1833759.86"
"MONA Film Produktion GmbH";"Tod in den Bergen";"Fernsehfonds";"RTR";"421266";"2012";"Film";"";"";"";"";"";"";"Tod in den Bergen";"Film";"2. Einreichtermin";"90";"1969144.53"
"MONA Film Produktion GmbH";"Angélique";"Fernsehfonds";"RTR";"800000";"2012";"Film";"";"";"";"";"";"";"Angélique";"Film";"3. Einreichtermin";"120";"15616828.67"
"MR-Film Kurt Mrkwicka Gesellschaft m.b.H.";"Nicht ohne meinen Enkel";"Fernsehfonds";"RTR";"413993";"2012";"Film";"";"";"";"";"";"";"Nicht ohne meinen Enkel";"Film";"2. Einreichtermin";"90";"1855469"
"NAVIGATOR FILM PRODUCTION - Verein zur Förderung und Durchführung von Filmprojekten & Co KG";"Ulrich Seidl und die bösen Buben";"Fernsehfonds";"RTR";"65000";"2012";"Dokumentation";"";"";"";"";"";"";"Ulrich Seidl und die bösen Buben";"Dokumentation";"3. Einreichtermin";"52";"311406"
"NAVIGATOR FILM PRODUCTION - Verein zur Förderung und Durchführung von Filmprojekten & Co KG";"Die Gentlemen baten zur Kasse";"Fernsehfonds";"RTR";"65000";"2012";"Dokumentation";"";"";"";"";"";"";"Die Gentlemen baten zur Kasse";"Dokumentation";"4. Einreichtermin";"2 x 80";"614912"
"Nikolaus Geyrhalter Filmproduktion GmbH";"Cern";"Fernsehfonds";"RTR";"63500";"2012";"Dokumentation";"";"";"";"";"";"";"Cern";"Dokumentation";"3. Einreichtermin";"80";"318445"
"Nikolaus Geyrhalter Filmproduktion GmbH";"Balkan Express - Moldawien - Zwischen den Welten";"Fernsehfonds";"RTR";"24000";"2012";"Dokumentation";"";"";"";"";"";"";"Balkan Express - Moldawien - Zwischen den Welten";"Dokumentation";"1. Einreichtermin";"52";"121432"
"Nikolaus Geyrhalter Filmproduktion GmbH";"Master of the Universe";"Fernsehfonds";"RTR";"33000";"2012";"Dokumentation";"";"";"";"";"";"";"Master of the Universe";"Dokumentation";"4. Einreichtermin";"88";"281457.12"
"ON-MEDIA TV- und Filmproduktion GmbH";"Pfusch am Bau V";"Fernsehfonds";"RTR";"56000";"2012";"Dokumentation";"";"";"";"";"";"";"Pfusch am Bau V";"Dokumentation";"3. Einreichtermin";"8 x 50";"285450.75"
"ON-MEDIA TV- und Filmproduktion GmbH";"Pfusch am Bau IV";"Fernsehfonds";"RTR";"56000";"2012";"Dokumentation";"";"";"";"";"";"";"Pfusch am Bau IV";"Dokumentation";"1. Einreichtermin";"8 x 50";"282330"
"ON-MEDIA TV- und Filmproduktion GmbH";"Die Notaufnahme IV";"Fernsehfonds";"RTR";"54000";"2012";"Dokumentation";"";"";"";"";"";"";"Die Notaufnahme IV";"Dokumentation";"4. Einreichtermin";"8 x 50";"278010.29"
"ON-MEDIA TV- und Filmproduktion GmbH";"24 Stunden - Die Lebensretter";"Fernsehfonds";"RTR";"27000";"2012";"Dokumentation";"";"";"";"";"";"";"24 Stunden - Die Lebensretter";"Dokumentation";"3. Einreichtermin";"4 x 50";"139736.06"
"OTTO PAMMER FILMPRODUKTION";"Wie wir wurden. Was wir sind. Generation Österreich (Folge 1-4)";"Fernsehfonds";"RTR";"20000";"2012";"Dokumentation";"";"";"";"";"";"";"Wie wir wurden. Was wir sind. Generation Österreich (Folge 1-4)";"Dokumentation";"2. Einreichtermin";"4 x 45";"240914.97"
"Power of Earth Productions TV & Film Produktions Ges.m.b.H.";"ATV Kosmos 1. Staffel";"Fernsehfonds";"RTR";"233578.4";"2012";"Dokumentation";"";"";"";"";"";"";"ATV Kosmos 1. Staffel";"Dokumentation";"1. Einreichtermin";"16 x 48";"943410.56"
"RAN - Film - TV - Filmproduktion Alfred Ninaus";"Mythos Ausseerland";"Fernsehfonds";"RTR";"91085";"2012";"Dokumentation";"";"";"";"";"";"";"Mythos Ausseerland";"Dokumentation";"1. Einreichtermin";"46 und 52";"375487"
"Satel Film GmbH";"Soko Donau / 8. Staffel";"Fernsehfonds";"RTR";"2038009";"2012";"Serie";"";"";"";"";"";"";"Soko Donau / 8. Staffel";"Serie";"1. Einreichtermin";"16 x 43";"10247492.89"
"Satel Film GmbH";"Aufgetischt - 4. Staffel";"Fernsehfonds";"RTR";"108013";"2012";"Dokumentation";"";"";"";"";"";"";"Aufgetischt - 4. Staffel";"Dokumentation";"2. Einreichtermin";"6 x 45";"485663.41"
"Satel Film GmbH";"Putins Spiele";"Fernsehfonds";"RTR";"78428";"2012";"Dokumentation";"";"";"";"";"";"";"Putins Spiele";"Dokumentation";"1. Einreichtermin";"52";"392154.72"
"Sunset Austria GmbH";"Stille";"Fernsehfonds";"RTR";"463982";"2012";"Film";"";"";"";"";"";"";"Stille";"Film";"1. Einreichtermin";"90";"2319914.88"
"Terra Internationale Filmproduktionen GmbH";"K 2 - The Italian Mountain";"Fernsehfonds";"RTR";"920000";"2012";"Film";"";"";"";"";"";"";"K 2 - The Italian Mountain";"Film";"1. Einreichtermin";"2 x 100";"4663028.68"
"tv and more. net TV und Internetproduktionsgesellschaft m.b.H.";"Die Unalten";"Fernsehfonds";"RTR";"175264";"2012";"Serie";"";"";"";"";"";"";"Die Unalten";"Serie";"1. Einreichtermin";"9 x 50";"1097182.1"
"Wega-Filmproduktionsgesellschaft m.b.H.";"Die Landärztin X - Vergissmeinnicht";"Fernsehfonds";"RTR";"326912";"2012";"Film";"";"";"";"";"";"";"Die Landärztin X - Vergissmeinnicht";"Film";"1. Einreichtermin";"88";"1644524.7"
"WILDart Film - Vincentius Lucassen";"Michael H. profession: director";"Fernsehfonds";"RTR";"42000";"2012";"Dokumentation";"";"";"";"";"";"";"Michael H. profession: director";"Dokumentation";"3. Einreichtermin";"52";"261965"